[gd_scene load_steps=7 format=3]

[ext_resource type="PackedScene" path="res://Assets/Menu Legacy/Menu.tscn" id="1_mdub3"]
[ext_resource type="Script" path="res://Assets/Menu Legacy/ConnectMenu.gd" id="2_r1bln"]
[ext_resource type="PackedScene" path="res://Assets/Menu Legacy/MenuLineEdit.tscn" id="3_l5lwj"]
[ext_resource type="PackedScene" path="res://Assets/Menu Legacy/MenuButton.tscn" id="4_4qrmb"]

[sub_resource type="InputEventKey" id="InputEventKey_7k4wy"]
store_command = false
keycode = 67

[sub_resource type="Shortcut" id="Shortcut_vswga"]
events = [SubResource( "InputEventKey_7k4wy" )]

[node name="ConnectMenu" instance=ExtResource( "1_mdub3" )]
script = ExtResource( "2_r1bln" )

[node name="MenuLineEdit" parent="." index="0" instance=ExtResource( "3_l5lwj" )]
anchor_right = 0.0
anchor_bottom = 0.0
offset_right = 200.0
offset_bottom = 31.0
label = "server"
var_name = "network_game_host"

[node name="Connect" parent="." index="1" instance=ExtResource( "4_4qrmb" )]
anchor_right = 0.0
anchor_bottom = 0.0
offset_top = 35.0
offset_right = 200.0
offset_bottom = 66.0
shortcut = SubResource( "Shortcut_vswga" )
text = "connect"
label = "connect"

[node name="Back" parent="." index="2"]
offset_top = 70.0
offset_bottom = 101.0

[connection signal="pressed" from="Connect" to="." method="connect_to_server"]
