[gd_scene load_steps=5 format=3]

[ext_resource type="PackedScene" path="res://Assets/Menu Legacy/Menu.tscn" id="1_u0y71"]
[ext_resource type="Script" path="res://Assets/Menu Legacy/GraphicsMenu.gd" id="2_xvwxb"]
[ext_resource type="PackedScene" path="res://Assets/Menu Legacy/MenuCheckButton.tscn" id="3_v3rhs"]
[ext_resource type="PackedScene" path="res://Assets/Menu Legacy/MenuSlider.tscn" id="4_mwyq3"]

[node name="GraphicsMenu" instance=ExtResource( "1_u0y71" )]
script = ExtResource( "2_xvwxb" )

[node name="Fullscreen" parent="." index="0" instance=ExtResource( "3_v3rhs" )]
anchor_right = 0.0
anchor_bottom = 0.0
offset_right = 200.0
offset_bottom = 31.0
theme_override_font_sizes/font_size = 16
label = "Fullscreen"
var_name = "display_fullscreen"

[node name="AmbientOcclusion" parent="." index="1" instance=ExtResource( "3_v3rhs" )]
visible = false
anchor_right = 0.0
anchor_bottom = 0.0
offset_top = 44.0
offset_right = 250.0
offset_bottom = 84.0
label = "Ambient Occlusion"

[node name="Shadows" parent="." index="2" instance=ExtResource( "3_v3rhs" )]
visible = false
anchor_right = 0.0
anchor_bottom = 0.0
offset_top = 88.0
offset_right = 250.0
offset_bottom = 128.0
label = "Shadows"

[node name="GlobalIllumination" parent="." index="3" instance=ExtResource( "3_v3rhs" )]
visible = false
anchor_right = 0.0
anchor_bottom = 0.0
offset_top = 132.0
offset_right = 250.0
offset_bottom = 172.0
label = "Global Illumination"

[node name="ScreenSpaceReflections" parent="." index="4" instance=ExtResource( "3_v3rhs" )]
visible = false
anchor_right = 0.0
anchor_bottom = 0.0
offset_top = 176.0
offset_right = 250.0
offset_bottom = 216.0
label = "Screen Space Reflections"

[node name="ReflectionProbes" parent="." index="5" instance=ExtResource( "3_v3rhs" )]
visible = false
anchor_right = 0.0
anchor_bottom = 0.0
offset_top = 220.0
offset_right = 250.0
offset_bottom = 260.0
label = "Reflection Probes"

[node name="Glow" parent="." index="6" instance=ExtResource( "3_v3rhs" )]
visible = false
anchor_right = 0.0
anchor_bottom = 0.0
offset_top = 264.0
offset_right = 250.0
offset_bottom = 304.0
label = "Glow"

[node name="MSAA" parent="." index="7" instance=ExtResource( "3_v3rhs" )]
visible = false
anchor_right = 0.0
anchor_bottom = 0.0
offset_top = 308.0
offset_right = 250.0
offset_bottom = 348.0
label = "MSAA"

[node name="FXAA" parent="." index="8" instance=ExtResource( "3_v3rhs" )]
visible = false
anchor_right = 0.0
anchor_bottom = 0.0
offset_top = 352.0
offset_right = 250.0
offset_bottom = 392.0
label = "FXAA"

[node name="RenderScale" parent="." index="9" instance=ExtResource( "4_mwyq3" )]
anchor_right = 0.0
anchor_bottom = 0.0
offset_top = 35.0
offset_right = 200.0
offset_bottom = 58.0
label = "Render Scale"
var_name = "render_scale"

[node name="Label" parent="RenderScale" index="0"]
offset_top = 0.0
offset_right = 98.0
offset_bottom = 23.0

[node name="Slider" parent="RenderScale" index="1"]
offset_left = 102.0
offset_right = 200.0
offset_bottom = 15.0
max_value = 6.0
value = 3.0
scrollable = false
tick_count = 7
ticks_on_borders = true

[node name="FSR" parent="." index="10" instance=ExtResource( "3_v3rhs" )]
visible = false
anchor_right = 0.0
anchor_bottom = 0.0
offset_top = 423.0
offset_right = 250.0
offset_bottom = 463.0
label = "FSR"

[node name="Debanding" parent="." index="11" instance=ExtResource( "3_v3rhs" )]
visible = false
anchor_right = 0.0
anchor_bottom = 0.0
offset_top = 467.0
offset_right = 250.0
offset_bottom = 507.0
label = "Debanding"

[node name="DecalsStatic" parent="." index="12" instance=ExtResource( "3_v3rhs" )]
visible = false
anchor_right = 0.0
anchor_bottom = 0.0
offset_top = 511.0
offset_right = 250.0
offset_bottom = 551.0
label = "Decals Static"

[node name="DecalsDecals" parent="." index="13" instance=ExtResource( "3_v3rhs" )]
visible = false
anchor_right = 0.0
anchor_bottom = 0.0
offset_top = 555.0
offset_right = 250.0
offset_bottom = 595.0
label = "Decals Decals"

[node name="DynamicLights" parent="." index="14" instance=ExtResource( "3_v3rhs" )]
visible = false
anchor_right = 0.0
anchor_bottom = 0.0
offset_top = 599.0
offset_right = 250.0
offset_bottom = 639.0
label = "Dynamic Lights"

[node name="Back" parent="." index="15"]
offset_top = 62.0
offset_bottom = 93.0

[connection signal="pressed" from="Fullscreen" to="Fullscreen" method="on_pressed"]
[connection signal="toggled" from="Fullscreen" to="Fullscreen" method="on_toggled"]
[connection signal="pressed" from="AmbientOcclusion" to="AmbientOcclusion" method="on_pressed"]
[connection signal="toggled" from="AmbientOcclusion" to="." method="on_ambient_occlusion_toggled"]
[connection signal="toggled" from="AmbientOcclusion" to="AmbientOcclusion" method="on_toggled"]
[connection signal="pressed" from="Shadows" to="Shadows" method="on_pressed"]
[connection signal="toggled" from="Shadows" to="." method="on_shadows_toggled"]
[connection signal="toggled" from="Shadows" to="Shadows" method="on_toggled"]
[connection signal="pressed" from="GlobalIllumination" to="GlobalIllumination" method="on_pressed"]
[connection signal="toggled" from="GlobalIllumination" to="." method="on_global_illumination_toggled"]
[connection signal="toggled" from="GlobalIllumination" to="GlobalIllumination" method="on_toggled"]
[connection signal="pressed" from="ScreenSpaceReflections" to="ScreenSpaceReflections" method="on_pressed"]
[connection signal="toggled" from="ScreenSpaceReflections" to="." method="on_screen_space_reflections_toggled"]
[connection signal="toggled" from="ScreenSpaceReflections" to="ScreenSpaceReflections" method="on_toggled"]
[connection signal="pressed" from="ReflectionProbes" to="ReflectionProbes" method="on_pressed"]
[connection signal="toggled" from="ReflectionProbes" to="." method="on_reflection_probes_toggled"]
[connection signal="toggled" from="ReflectionProbes" to="ReflectionProbes" method="on_toggled"]
[connection signal="pressed" from="Glow" to="Glow" method="on_pressed"]
[connection signal="toggled" from="Glow" to="." method="on_glow_toggled"]
[connection signal="toggled" from="Glow" to="Glow" method="on_toggled"]
[connection signal="pressed" from="MSAA" to="MSAA" method="on_pressed"]
[connection signal="toggled" from="MSAA" to="." method="on_MSAA_toggled"]
[connection signal="toggled" from="MSAA" to="MSAA" method="on_toggled"]
[connection signal="pressed" from="FXAA" to="FXAA" method="on_pressed"]
[connection signal="toggled" from="FXAA" to="." method="on_FXAA_toggled"]
[connection signal="toggled" from="FXAA" to="FXAA" method="on_toggled"]
[connection signal="pressed" from="FSR" to="FSR" method="on_pressed"]
[connection signal="toggled" from="FSR" to="." method="on_FSR_toggled"]
[connection signal="toggled" from="FSR" to="FSR" method="on_toggled"]
[connection signal="pressed" from="Debanding" to="Debanding" method="on_pressed"]
[connection signal="toggled" from="Debanding" to="." method="on_debanding_toggled"]
[connection signal="toggled" from="Debanding" to="Debanding" method="on_toggled"]
[connection signal="pressed" from="DecalsStatic" to="DecalsStatic" method="on_pressed"]
[connection signal="toggled" from="DecalsStatic" to="." method="on_decals_static_toggled"]
[connection signal="toggled" from="DecalsStatic" to="DecalsStatic" method="on_toggled"]
[connection signal="pressed" from="DecalsDecals" to="DecalsDecals" method="on_pressed"]
[connection signal="toggled" from="DecalsDecals" to="." method="on_decals_decals_toggled"]
[connection signal="toggled" from="DecalsDecals" to="DecalsDecals" method="on_toggled"]
[connection signal="pressed" from="DynamicLights" to="DynamicLights" method="on_pressed"]
[connection signal="toggled" from="DynamicLights" to="." method="on_dynamic_lights_toggled"]
[connection signal="toggled" from="DynamicLights" to="DynamicLights" method="on_toggled"]

[editable path="RenderScale"]
