<?xml version="1.0" encoding="UTF-8" standalone="no"?>
<!-- Created with Inkscape (http://www.inkscape.org/) -->

<svg
   width="210mm"
   height="297mm"
   viewBox="0 0 210 297"
   version="1.1"
   id="svg5"
   inkscape:version="1.1 (c4e8f9ed74, 2021-05-24)"
   sodipodi:docname="Lion platforms sketch.svg"
   xmlns:inkscape="http://www.inkscape.org/namespaces/inkscape"
   xmlns:sodipodi="http://sodipodi.sourceforge.net/DTD/sodipodi-0.dtd"
   xmlns="http://www.w3.org/2000/svg"
   xmlns:svg="http://www.w3.org/2000/svg">
  <sodipodi:namedview
     id="namedview7"
     pagecolor="#ffffff"
     bordercolor="#666666"
     borderopacity="1.0"
     inkscape:pageshadow="2"
     inkscape:pageopacity="0.0"
     inkscape:pagecheckerboard="0"
     inkscape:document-units="mm"
     showgrid="false"
     inkscape:zoom="0.5"
     inkscape:cx="2457"
     inkscape:cy="461"
     inkscape:window-width="1920"
     inkscape:window-height="1006"
     inkscape:window-x="0"
     inkscape:window-y="0"
     inkscape:window-maximized="1"
     inkscape:current-layer="g1669" />
  <defs
     id="defs2">
    <inkscape:path-effect
       effect="powerstroke"
       id="path-effect2197"
       is_visible="true"
       lpeversion="1"
       offset_points="4.3358321,1.6059935 | 13.72159,1.2509123 | 20.758192,0.99049813 | 26.651361,1.3270922 | 28.932522,1.1807885"
       not_jump="true"
       sort_points="true"
       interpolator_type="CentripetalCatmullRom"
       interpolator_beta="0.75"
       start_linecap_type="round"
       linejoin_type="spiro"
       miter_limit="4"
       scale_width="1"
       end_linecap_type="round" />
    <inkscape:path-effect
       effect="simplify"
       id="path-effect2195"
       is_visible="true"
       lpeversion="1"
       steps="1"
       threshold="0.0032025118"
       smooth_angles="0"
       helper_size="0"
       simplify_individual_paths="false"
       simplify_just_coalesce="false"
       step="1" />
    <inkscape:path-effect
       effect="powerstroke"
       id="path-effect2157"
       is_visible="true"
       lpeversion="1"
       offset_points="4.0010293,1.773653 | 6.3786045,1.5266262 | 15.85783,1.3854224"
       not_jump="true"
       sort_points="true"
       interpolator_type="CentripetalCatmullRom"
       interpolator_beta="0.75"
       start_linecap_type="round"
       linejoin_type="spiro"
       miter_limit="4"
       scale_width="1"
       end_linecap_type="round" />
    <inkscape:path-effect
       effect="simplify"
       id="path-effect2155"
       is_visible="true"
       lpeversion="1"
       steps="1"
       threshold="0.0032025118"
       smooth_angles="0"
       helper_size="0"
       simplify_individual_paths="false"
       simplify_just_coalesce="false"
       step="1" />
    <inkscape:path-effect
       effect="powerstroke"
       id="path-effect1885"
       is_visible="true"
       lpeversion="1"
       offset_points="1.8226577,0.92898047 | 3.9703613,1.152739 | 5.7350653,0.84036953 | 7.9623747,1.0175914 | 10.245944,0.90252468"
       not_jump="true"
       sort_points="true"
       interpolator_type="CentripetalCatmullRom"
       interpolator_beta="0.75"
       start_linecap_type="round"
       linejoin_type="spiro"
       miter_limit="4"
       scale_width="1"
       end_linecap_type="round" />
    <inkscape:path-effect
       effect="simplify"
       id="path-effect1883"
       is_visible="true"
       lpeversion="1"
       steps="1"
       threshold="0.0032025118"
       smooth_angles="0"
       helper_size="0"
       simplify_individual_paths="false"
       simplify_just_coalesce="false"
       step="1" />
    <inkscape:path-effect
       effect="powerstroke"
       id="path-effect1812"
       is_visible="true"
       lpeversion="1"
       offset_points="3.5086865,1.1721824 | 5.3421103,0.91973688 | 8.6523914,1.2321064 | 10.394942,0.89997473 | 14.075909,1.0791091 | 17.769553,1.2381625 | 19.111731,0.9608549 | 22.816654,1.1454079 | 22.952574,1.009304 | 27.620185,1.3022301 | 29.360864,1.1626201"
       not_jump="true"
       sort_points="true"
       interpolator_type="CentripetalCatmullRom"
       interpolator_beta="0.75"
       start_linecap_type="round"
       linejoin_type="spiro"
       miter_limit="4"
       scale_width="1"
       end_linecap_type="round" />
    <inkscape:path-effect
       effect="simplify"
       id="path-effect1810"
       is_visible="true"
       lpeversion="1"
       steps="1"
       threshold="0.0032025118"
       smooth_angles="0"
       helper_size="0"
       simplify_individual_paths="false"
       simplify_just_coalesce="false"
       step="1" />
    <inkscape:path-effect
       effect="powerstroke"
       id="path-effect1805"
       is_visible="true"
       lpeversion="1"
       offset_points="1.7110922,0.12478842 | 3.615256,0.34217208 | 3.9919419,0.2647172 | 5.0787717,0.59844255 | 10.805615,1.6872733"
       not_jump="true"
       sort_points="true"
       interpolator_type="CentripetalCatmullRom"
       interpolator_beta="0.75"
       start_linecap_type="round"
       linejoin_type="spiro"
       miter_limit="4"
       scale_width="1"
       end_linecap_type="round" />
    <inkscape:path-effect
       effect="simplify"
       id="path-effect1803"
       is_visible="true"
       lpeversion="1"
       steps="1"
       threshold="0.0032025118"
       smooth_angles="0"
       helper_size="0"
       simplify_individual_paths="false"
       simplify_just_coalesce="false"
       step="1" />
    <inkscape:path-effect
       effect="powerstroke"
       id="path-effect1661"
       is_visible="true"
       lpeversion="1"
       offset_points="1.9712553,1.3263984 | 15.4873,1.1695295 | 16.384636,1.3620094"
       not_jump="true"
       sort_points="true"
       interpolator_type="CentripetalCatmullRom"
       interpolator_beta="0.75"
       start_linecap_type="round"
       linejoin_type="spiro"
       miter_limit="4"
       scale_width="1"
       end_linecap_type="round" />
    <inkscape:path-effect
       effect="simplify"
       id="path-effect1657"
       is_visible="true"
       lpeversion="1"
       steps="1"
       threshold="0.0032025118"
       smooth_angles="0"
       helper_size="0"
       simplify_individual_paths="false"
       simplify_just_coalesce="false"
       step="1" />
    <inkscape:path-effect
       effect="powerstroke"
       id="path-effect1651"
       is_visible="true"
       lpeversion="1"
       offset_points="1.3443794,1.0879397 | 7.3926041,1.2831242"
       not_jump="true"
       sort_points="true"
       interpolator_type="CentripetalCatmullRom"
       interpolator_beta="0.75"
       start_linecap_type="round"
       linejoin_type="spiro"
       miter_limit="4"
       scale_width="1"
       end_linecap_type="round" />
    <inkscape:path-effect
       effect="simplify"
       id="path-effect1647"
       is_visible="true"
       lpeversion="1"
       steps="1"
       threshold="0.0032025118"
       smooth_angles="0"
       helper_size="0"
       simplify_individual_paths="false"
       simplify_just_coalesce="false"
       step="1" />
    <inkscape:path-effect
       effect="powerstroke"
       id="path-effect1397"
       is_visible="true"
       lpeversion="1"
       offset_points="2.5079904,0.34867261 | 15.627107,2.5984787"
       not_jump="true"
       sort_points="true"
       interpolator_type="CentripetalCatmullRom"
       interpolator_beta="0.75"
       start_linecap_type="round"
       linejoin_type="spiro"
       miter_limit="4"
       scale_width="1"
       end_linecap_type="round" />
    <inkscape:path-effect
       effect="simplify"
       id="path-effect1395"
       is_visible="true"
       lpeversion="1"
       steps="1"
       threshold="0.0032025118"
       smooth_angles="0"
       helper_size="0"
       simplify_individual_paths="false"
       simplify_just_coalesce="false"
       step="1" />
    <inkscape:path-effect
       effect="powerstroke"
       id="path-effect1390"
       is_visible="true"
       lpeversion="1"
       offset_points="1.0320145,0.49337062 | 1.9540608,0.057022735 | 5.2614358,0.76608805 | 6.6175123,0.54115252"
       not_jump="true"
       sort_points="true"
       interpolator_type="CentripetalCatmullRom"
       interpolator_beta="0.75"
       start_linecap_type="round"
       linejoin_type="spiro"
       miter_limit="4"
       scale_width="1"
       end_linecap_type="round" />
    <inkscape:path-effect
       effect="simplify"
       id="path-effect1388"
       is_visible="true"
       lpeversion="1"
       steps="1"
       threshold="0.0032025118"
       smooth_angles="0"
       helper_size="0"
       simplify_individual_paths="false"
       simplify_just_coalesce="false"
       step="1" />
    <inkscape:path-effect
       effect="powerstroke"
       id="path-effect1383"
       is_visible="true"
       lpeversion="1"
       offset_points="1.9063147,0.66962271 | 2.995364,0.46632427 | 3.922639,0.68765362 | 5.3137216,0.023665562 | 8.0860378,2.3212536 | 16.862924,2.6241728"
       not_jump="true"
       sort_points="true"
       interpolator_type="CentripetalCatmullRom"
       interpolator_beta="0.75"
       start_linecap_type="round"
       linejoin_type="spiro"
       miter_limit="4"
       scale_width="1"
       end_linecap_type="round" />
    <inkscape:path-effect
       effect="simplify"
       id="path-effect1381"
       is_visible="true"
       lpeversion="1"
       steps="1"
       threshold="0.0032025118"
       smooth_angles="0"
       helper_size="0"
       simplify_individual_paths="false"
       simplify_just_coalesce="false"
       step="1" />
    <inkscape:path-effect
       effect="powerstroke"
       id="path-effect1376"
       is_visible="true"
       lpeversion="1"
       offset_points="3.6336776,1.2290315 | 4.1510541,1.0433132 | 6.156794,0.74625406 | 10.171882,1.9894849 | 11.971644,1.7785233 | 21.696587,1.4354854"
       not_jump="true"
       sort_points="true"
       interpolator_type="CentripetalCatmullRom"
       interpolator_beta="0.75"
       start_linecap_type="round"
       linejoin_type="spiro"
       miter_limit="4"
       scale_width="1"
       end_linecap_type="round" />
    <inkscape:path-effect
       effect="simplify"
       id="path-effect1374"
       is_visible="true"
       lpeversion="1"
       steps="1"
       threshold="0.0032025118"
       smooth_angles="0"
       helper_size="0"
       simplify_individual_paths="false"
       simplify_just_coalesce="false"
       step="1" />
    <inkscape:path-effect
       effect="powerstroke"
       id="path-effect1369"
       is_visible="true"
       lpeversion="1"
       offset_points="3.2624466,1.8384761 | 11.146999,1.3620094"
       not_jump="true"
       sort_points="true"
       interpolator_type="CentripetalCatmullRom"
       interpolator_beta="0.75"
       start_linecap_type="round"
       linejoin_type="spiro"
       miter_limit="4"
       scale_width="1"
       end_linecap_type="round" />
    <inkscape:path-effect
       effect="simplify"
       id="path-effect1367"
       is_visible="true"
       lpeversion="1"
       steps="1"
       threshold="0.0032025118"
       smooth_angles="0"
       helper_size="0"
       simplify_individual_paths="false"
       simplify_just_coalesce="false"
       step="1" />
    <inkscape:path-effect
       effect="powerstroke"
       id="path-effect1362"
       is_visible="true"
       lpeversion="1"
       offset_points="1.255665,0.59163905 | 7.7688815,1.1384262"
       not_jump="true"
       sort_points="true"
       interpolator_type="CentripetalCatmullRom"
       interpolator_beta="0.75"
       start_linecap_type="round"
       linejoin_type="spiro"
       miter_limit="4"
       scale_width="1"
       end_linecap_type="round" />
    <inkscape:path-effect
       effect="simplify"
       id="path-effect1360"
       is_visible="true"
       lpeversion="1"
       steps="1"
       threshold="0.0032025118"
       smooth_angles="0"
       helper_size="0"
       simplify_individual_paths="false"
       simplify_just_coalesce="false"
       step="1" />
    <inkscape:path-effect
       effect="powerstroke"
       id="path-effect1322"
       is_visible="true"
       lpeversion="1"
       offset_points="2.6834141,1.1812496 | 4.1899884,1.4165529"
       not_jump="true"
       sort_points="true"
       interpolator_type="CentripetalCatmullRom"
       interpolator_beta="0.75"
       start_linecap_type="round"
       linejoin_type="spiro"
       miter_limit="4"
       scale_width="1"
       end_linecap_type="round" />
    <inkscape:path-effect
       effect="simplify"
       id="path-effect1320"
       is_visible="true"
       lpeversion="1"
       steps="1"
       threshold="0.0032025118"
       smooth_angles="0"
       helper_size="0"
       simplify_individual_paths="false"
       simplify_just_coalesce="false"
       step="1" />
    <inkscape:path-effect
       effect="powerstroke"
       id="path-effect1311"
       is_visible="true"
       lpeversion="1"
       offset_points="2.9060005,1.043764 | 8.797992,1.4742518"
       not_jump="true"
       sort_points="true"
       interpolator_type="CentripetalCatmullRom"
       interpolator_beta="0.75"
       start_linecap_type="round"
       linejoin_type="spiro"
       miter_limit="4"
       scale_width="1"
       end_linecap_type="round" />
    <inkscape:path-effect
       effect="simplify"
       id="path-effect1309"
       is_visible="true"
       lpeversion="1"
       steps="1"
       threshold="0.0032025118"
       smooth_angles="0"
       helper_size="0"
       simplify_individual_paths="false"
       simplify_just_coalesce="false"
       step="1" />
    <inkscape:path-effect
       effect="powerstroke"
       id="path-effect1304"
       is_visible="true"
       lpeversion="1"
       offset_points="1.0182765,0.98967127 | 7.1269958,1.5481785"
       not_jump="true"
       sort_points="true"
       interpolator_type="CentripetalCatmullRom"
       interpolator_beta="0.75"
       start_linecap_type="round"
       linejoin_type="spiro"
       miter_limit="4"
       scale_width="1"
       end_linecap_type="round" />
    <inkscape:path-effect
       effect="simplify"
       id="path-effect1302"
       is_visible="true"
       lpeversion="1"
       steps="1"
       threshold="0.0032025118"
       smooth_angles="0"
       helper_size="0"
       simplify_individual_paths="false"
       simplify_just_coalesce="false"
       step="1" />
    <inkscape:path-effect
       effect="powerstroke"
       id="path-effect1297"
       is_visible="true"
       lpeversion="1"
       offset_points="1.9712553,1.3263984 | 15.4873,1.1695295 | 16.384636,1.3620094"
       not_jump="true"
       sort_points="true"
       interpolator_type="CentripetalCatmullRom"
       interpolator_beta="0.75"
       start_linecap_type="round"
       linejoin_type="spiro"
       miter_limit="4"
       scale_width="1"
       end_linecap_type="round" />
    <inkscape:path-effect
       effect="simplify"
       id="path-effect1295"
       is_visible="true"
       lpeversion="1"
       steps="1"
       threshold="0.0032025118"
       smooth_angles="0"
       helper_size="0"
       simplify_individual_paths="false"
       simplify_just_coalesce="false"
       step="1" />
    <inkscape:path-effect
       effect="powerstroke"
       id="path-effect1290"
       is_visible="true"
       lpeversion="1"
       offset_points="2.0485813,1.004096 | 8.6629113,1.319186"
       not_jump="true"
       sort_points="true"
       interpolator_type="CentripetalCatmullRom"
       interpolator_beta="0.75"
       start_linecap_type="round"
       linejoin_type="spiro"
       miter_limit="4"
       scale_width="1"
       end_linecap_type="round" />
    <inkscape:path-effect
       effect="simplify"
       id="path-effect1288"
       is_visible="true"
       lpeversion="1"
       steps="1"
       threshold="0.0032025118"
       smooth_angles="0"
       helper_size="0"
       simplify_individual_paths="false"
       simplify_just_coalesce="false"
       step="1" />
    <inkscape:path-effect
       effect="powerstroke"
       id="path-effect1283"
       is_visible="true"
       lpeversion="1"
       offset_points="1.3443794,1.0879397 | 7.3926041,1.2831242"
       not_jump="true"
       sort_points="true"
       interpolator_type="CentripetalCatmullRom"
       interpolator_beta="0.75"
       start_linecap_type="round"
       linejoin_type="spiro"
       miter_limit="4"
       scale_width="1"
       end_linecap_type="round" />
    <inkscape:path-effect
       effect="simplify"
       id="path-effect1281"
       is_visible="true"
       lpeversion="1"
       steps="1"
       threshold="0.0032025118"
       smooth_angles="0"
       helper_size="0"
       simplify_individual_paths="false"
       simplify_just_coalesce="false"
       step="1" />
    <inkscape:path-effect
       effect="powerstroke"
       id="path-effect1276"
       is_visible="true"
       lpeversion="1"
       offset_points="1.073766,0.90447524 | 4.0416012,1.3381185 | 7.2360557,1.1794465"
       not_jump="true"
       sort_points="true"
       interpolator_type="CentripetalCatmullRom"
       interpolator_beta="0.75"
       start_linecap_type="round"
       linejoin_type="spiro"
       miter_limit="4"
       scale_width="1"
       end_linecap_type="round" />
    <inkscape:path-effect
       effect="simplify"
       id="path-effect1274"
       is_visible="true"
       lpeversion="1"
       steps="1"
       threshold="0.0032025118"
       smooth_angles="0"
       helper_size="0"
       simplify_individual_paths="false"
       simplify_just_coalesce="false"
       step="1" />
    <inkscape:path-effect
       effect="powerstroke"
       id="path-effect1269"
       is_visible="true"
       lpeversion="1"
       offset_points="0.68716461,0.22155474 | 4.9779436,0.95315868"
       not_jump="true"
       sort_points="true"
       interpolator_type="CentripetalCatmullRom"
       interpolator_beta="0.75"
       start_linecap_type="round"
       linejoin_type="spiro"
       miter_limit="4"
       scale_width="1"
       end_linecap_type="round" />
    <inkscape:path-effect
       effect="simplify"
       id="path-effect1267"
       is_visible="true"
       lpeversion="1"
       steps="1"
       threshold="0.0032025118"
       smooth_angles="0"
       helper_size="0"
       simplify_individual_paths="false"
       simplify_just_coalesce="false"
       step="1" />
    <inkscape:path-effect
       effect="powerstroke"
       id="path-effect1262"
       is_visible="true"
       lpeversion="1"
       offset_points="1.0358688,0.96217414 | 7.8266506,0.74535251"
       not_jump="true"
       sort_points="true"
       interpolator_type="CentripetalCatmullRom"
       interpolator_beta="0.75"
       start_linecap_type="round"
       linejoin_type="spiro"
       miter_limit="4"
       scale_width="1"
       end_linecap_type="round" />
    <inkscape:path-effect
       effect="simplify"
       id="path-effect1260"
       is_visible="true"
       lpeversion="1"
       steps="1"
       threshold="0.0032025118"
       smooth_angles="0"
       helper_size="0"
       simplify_individual_paths="false"
       simplify_just_coalesce="false"
       step="1" />
  </defs>
  <g
     inkscape:label="Layer 1"
     inkscape:groupmode="layer"
     id="layer1">
    <rect
       style="opacity:0.5;fill:#000000;stroke-width:3.77953;stroke-linecap:round;stroke-linejoin:round;paint-order:markers stroke fill"
       id="rect892"
       width="1145.9277"
       height="201.23883"
       x="1375.6726"
       y="602.11945"
       transform="matrix(0.16765814,0,0,0.05947542,132.96938,123.71234)"
       rx="3.5090499"
       ry="3.5090499" />
    <rect
       style="opacity:0.5;fill:#000000;stroke-width:3.77953;stroke-linecap:round;stroke-linejoin:round;paint-order:markers stroke fill"
       id="rect894"
       width="78.673325"
       height="671.12396"
       x="1490.5038"
       y="-81.967415"
       transform="scale(0.26458333)"
       rx="3.5090499"
       ry="3.5090499" />
    <rect
       style="opacity:0.5;fill:#000000;stroke-width:3.77953;stroke-linecap:round;stroke-linejoin:round;paint-order:markers stroke fill"
       id="rect896"
       width="446.21249"
       height="90.025543"
       x="1566.793"
       y="288.05814"
       transform="scale(0.26458333)"
       rx="3.5090499"
       ry="3.5090499" />
    <rect
       style="opacity:0.5;fill:#000000;stroke-width:3.77953;stroke-linecap:round;stroke-linejoin:round;paint-order:markers stroke fill"
       id="rect898"
       width="416.61072"
       height="144.38058"
       x="1566.793"
       y="378.08368"
       transform="scale(0.26458333)"
       rx="3.5090499"
       ry="3.5090499" />
    <rect
       style="opacity:0.5;fill:#000000;stroke-width:3.77953;stroke-linecap:round;stroke-linejoin:round;paint-order:markers stroke fill"
       id="rect900"
       width="88.209389"
       height="86.717705"
       x="1876.3207"
       y="522.55371"
       transform="scale(0.26458333)"
       rx="3.5090499"
       ry="3.5090499" />
    <rect
       style="opacity:0.5;fill:#000000;stroke-width:3.77953;stroke-linecap:round;stroke-linejoin:round;paint-order:markers stroke fill"
       id="rect982"
       width="1145.9277"
       height="201.23883"
       x="1375.6726"
       y="602.11945"
       transform="matrix(0.11123696,0,0,0.05947542,242.91375,165.98147)"
       rx="3.5090499"
       ry="3.5090499" />
    <rect
       style="opacity:0.5;fill:#000000;stroke-width:3.77953;stroke-linecap:round;stroke-linejoin:round;paint-order:markers stroke fill"
       id="rect1028"
       width="190.12706"
       height="34.865925"
       x="1916.3246"
       y="730.68323"
       transform="matrix(0.20530789,0,0,0.26458333,124.90575,0.04040037)"
       rx="1.4752899"
       ry="0.78879601" />
    <path
       d="m 547.0909,177.04037 c 0.0248,0.006 0.0656,0.0186 0.11977,0.0476 0.0409,0.0219 0.0931,0.0551 0.15782,0.10855 0.11038,0.0911 0.2345,0.22174 0.39408,0.42556 0.003,0.003 0.005,0.007 0.008,0.01 0.10456,0.13028 0.22611,0.29456 0.37582,0.48272 0.0609,0.0765 0.13252,0.16429 0.21152,0.25442 0.11272,0.12861 0.25493,0.27883 0.42566,0.4245 0.15581,0.13294 0.34462,0.27016 0.57063,0.38829 0.006,0.003 0.0122,0.006 0.0182,0.009 0.42825,0.21373 0.87224,0.33481 1.31644,0.41082 0.39777,0.068 0.78992,0.0988 1.13795,0.13159 0.34866,0.0327 0.64941,0.059 0.93121,0.11175 0.26708,0.05 0.47644,0.11723 0.64755,0.21008 l -0.0111,-0.006 c 0.14114,0.0873 0.22359,0.17545 0.25908,0.24247 l -0.18253,-0.33415 c -0.0328,-0.0875 -0.0536,-0.18024 -0.0614,-0.27506 -0.008,-0.0946 -0.002,-0.18202 0.0113,-0.25895 0.0256,-0.1499 0.0783,-0.25705 0.10563,-0.30792 0.0311,-0.0577 0.047,-0.0785 0.0455,-0.081 -0.002,-0.003 -0.02,0.0136 -0.0575,0.0523 l 0.0642,-0.0679 c -0.11797,0.10778 -0.26053,0.21123 -0.43067,0.31903 -0.18541,0.11747 -0.38818,0.23059 -0.60403,0.35307 l 0.0224,-0.0129 c -0.36994,0.20365 -0.71934,0.38154 -1.05094,0.53819 -0.54059,0.25537 -1.08749,0.47929 -1.64191,0.66365 -0.20247,0.0603 -0.32551,0.0984 -0.4557,0.12822 -0.1282,0.0294 -0.20129,0.0349 -0.24508,0.0343 l 0.058,0.003 c 0.0174,0.004 0.1771,0.0379 0.28027,0.0871 a 1.2831242,1.2831242 90 0 0 -1.10548,2.31594 c 0.21095,0.10069 0.41982,0.14926 0.63141,0.1679 0.0193,0.002 0.0387,0.002 0.058,0.003 0.32766,0.0107 0.62958,-0.0339 0.89756,-0.095 0.24143,-0.055 0.47235,-0.12816 0.64175,-0.18035 0.0113,-0.003 0.0226,-0.007 0.0338,-0.0107 0.67546,-0.22598 1.3279,-0.49835 1.95597,-0.80282 0.38115,-0.18477 0.77706,-0.39297 1.1897,-0.62817 0.007,-0.004 0.0151,-0.008 0.0224,-0.0129 0.19022,-0.11584 0.45973,-0.27813 0.71256,-0.45272 0.24133,-0.16664 0.51532,-0.37606 0.77544,-0.63912 0.006,-0.006 0.0113,-0.0111 0.0174,-0.0161 0.006,-0.005 0.0126,-0.01 0.0187,-0.0145 0.006,-0.005 0.0119,-0.0104 0.0166,-0.0167 0.005,-0.006 0.008,-0.0134 0.0115,-0.0206 0.004,-0.008 0.0326,-0.0434 0.0772,-0.10082 0.0397,-0.0511 0.1074,-0.14037 0.17125,-0.25267 0.063,-0.11088 0.14335,-0.28006 0.18149,-0.49585 0.0193,-0.1094 0.0277,-0.22995 0.0177,-0.35832 -0.01,-0.12844 -0.0376,-0.25538 -0.0828,-0.37766 -0.0221,-0.0599 -0.0444,-0.12001 -0.0742,-0.17654 -0.0298,-0.0565 -0.0681,-0.10799 -0.10837,-0.15761 -0.32294,-0.39828 -0.7252,-0.6696 -1.10184,-0.84965 -0.004,-0.002 -0.007,-0.004 -0.0111,-0.006 -0.4598,-0.22341 -0.9212,-0.33107 -1.32591,-0.39132 -0.40642,-0.0605 -0.82303,-0.081 -1.13167,-0.0991 -0.39205,-0.0234 -0.67352,-0.0364 -0.96305,-0.076 -0.29868,-0.0409 -0.5192,-0.10138 -0.69834,-0.18338 l 0.0182,0.009 c -0.0527,-0.024 -0.10739,-0.0578 -0.16668,-0.10465 -0.0662,-0.0523 -0.13421,-0.11758 -0.20544,-0.19479 -0.049,-0.0532 -0.098,-0.11021 -0.14671,-0.16917 -0.11706,-0.1417 -0.24217,-0.30658 -0.3802,-0.47629 -0.20917,-0.2625 -0.43367,-0.51499 -0.69786,-0.73712 -0.1634,-0.13739 -0.32906,-0.25208 -0.49797,-0.34623 -0.23498,-0.13098 -0.44924,-0.20698 -0.62434,-0.25244 a 1.0879397,1.0879397 90 0 0 -0.54682,2.10604 z"
       id="path-1"
       inkscape:path-effect="#path-effect1281;#path-effect1283"
       inkscape:original-d="m 547.36431,175.98735 c 1.15437,0.31044 1.51908,1.74373 2.5144,2.2225 1.45016,0.69756 3.5886,-0.004 4.71449,1.3133 0.49105,0.57447 -4.79805,3.17359 -5.63494,2.76803"
       style="fill:#000000;fill-rule:nonzero;stroke:none;stroke-width:1px;stroke-linecap:butt;stroke-linejoin:miter;stroke-opacity:1" />
    <path
       d="m 548.91336,178.08862 c -0.93042,-1.014 -0.22454,-2.621 -1.14138,-3.64165 -0.88013,-1.0252 -2.34966,-1.202 -3.61899,-1.07315 -1.69833,0.19294 -3.37429,0.76937 -4.78383,1.74481 -1.11098,0.76964 -1.97052,1.89902 -2.33786,3.2074 -0.40391,1.39723 -0.76057,2.84496 -1.59545,4.06231 -1.42891,2.13806 -3.47238,3.75045 -5.4326,5.37252 -2.01958,1.35985 -4.20935,2.47693 -6.09742,4.02686 -0.41948,0.24647 -1.04111,1.10934 -0.13307,1.08086 2.44951,0.36313 4.92744,0.47868 7.3887,0.73943 4.36924,0.42112 8.73816,0.84751 13.11053,1.23386 2.52328,0.28234 5.0976,0.86407 7.62616,0.30936 0.1917,-0.0578 0.82989,-0.12871 0.30443,-0.26464 -0.79648,-0.35309 -1.68083,-0.88132 -1.89147,-1.7912 -0.18956,-0.40348 0.5765,-0.87885 -0.0805,-1.04538 -0.54612,-0.24752 -1.25967,-0.3908 -1.49849,-1.01889 -0.41087,-0.96704 -0.0186,-2.02538 0.26964,-2.96916 0.28251,-0.94845 0.73934,-1.93516 0.5248,-2.94405 -0.2042,-0.83849 -1.11622,-1.19689 -1.88494,-1.31718 -0.61713,-0.10707 -1.24621,-0.12578 -1.87123,-0.11544"
       id="path-1-6"
       inkscape:path-effect="#path-effect1295;#path-effect1297"
       inkscape:original-d="m 548.91336,178.08862 c -0.90757,-0.9949 -0.26396,-2.51413 -1.05515,-3.53579 -1.79441,-2.31712 -6.50854,-0.84579 -8.41873,0.51521 -3.03079,2.15942 -2.11885,4.18818 -3.81649,7.02109 -1.28214,2.13956 -3.62522,4.02796 -5.52269,5.59666 -0.86792,0.71754 -7.21471,4.15349 -6.82477,5.03094 0.10562,0.23767 4.16313,0.55045 5.45533,0.66675 4.94394,0.44495 9.84967,0.96867 14.79451,1.38401 2.8708,0.24113 6.05273,1.10024 8.91263,0.24246 0.10022,-0.0301 -1.12058,-0.36565 -1.77355,-1.19207 -0.79026,-1.00018 -0.0345,-1.47565 -0.1347,-1.56585 -0.48541,-0.4369 -1.25997,-0.38889 -1.66129,-0.97993 -1.68879,-2.4871 4.33785,-7.72624 -3.0981,-7.58681"
       style="fill:#000000;fill-rule:nonzero;stroke:none;stroke-width:1px;stroke-linecap:butt;stroke-linejoin:miter;stroke-opacity:1" />
    <path
       style="fill:#000000;stroke:none;stroke-opacity:1;stroke-linejoin:miter;stroke-linecap:butt;stroke-width:1px"
       d="m 2199.7871,588.44169 c 12.7015,-11.53048 41.0752,-11.30183 54.5586,-1.14545 2.5028,1.88519 6.4411,3.62622 6.5335,6.75817 0.5395,18.27737 -4.3504,23.25084 -17.9034,30.46912 -7.3819,3.93161 -15.1312,7.15877 -22.9095,10.23275 -19.429,7.67842 -39.9618,11.7276 -59.9042,17.67821 -8.7717,2.61739 -36.4466,9.06513 -26.2187,26.26909 3.5565,5.98222 10.5603,9.10959 16.2912,13.05822 2.0478,1.41092 4.5291,2.07084 6.8729,2.90182 23.6051,8.36889 49.992,1.72089 73.4803,-4.00912 18.6818,-4.55747 53.4382,-12.36568 52.6919,-37.38002 -0.6181,-20.72039 -19.2228,-40.98616 -37.7583,-48.94913 -10.5211,-4.51997 -21.6624,-5.23181 -32.837,-4.96364 -15.273,-5.9182 -12.8973,-10.92002 -12.8973,-10.92002 z"
       id="path1317" />
    <rect
       style="opacity:0.5;fill:#88aa00;stroke-width:3.77953;stroke-linecap:round;stroke-linejoin:round;paint-order:markers stroke fill"
       id="rect1547"
       width="522.20923"
       height="19.56719"
       x="2075.6133"
       y="684.2572"
       transform="scale(0.26458333)"
       rx="1.4752899"
       ry="0.78879601" />
    <rect
       style="opacity:0.5;fill:#000000;stroke-width:3.77953;stroke-linecap:round;stroke-linejoin:round;paint-order:markers stroke fill"
       id="rect1629"
       width="1145.9277"
       height="201.23883"
       x="1375.6726"
       y="602.11945"
       transform="matrix(0.16765814,0,0,0.05947542,486.69069,126.75129)"
       rx="3.5090499"
       ry="3.5090499" />
    <rect
       style="opacity:0.5;fill:#000000;stroke-width:3.77953;stroke-linecap:round;stroke-linejoin:round;paint-order:markers stroke fill"
       id="rect1631"
       width="78.673325"
       height="671.12396"
       x="1490.5038"
       y="-81.967415"
       transform="matrix(0.26458333,0,0,0.26458333,353.72131,3.0389508)"
       rx="3.5090499"
       ry="3.5090499" />
    <rect
       style="opacity:0.5;fill:#000000;stroke-width:3.77953;stroke-linecap:round;stroke-linejoin:round;paint-order:markers stroke fill"
       id="rect1633"
       width="446.21249"
       height="90.025543"
       x="1566.793"
       y="288.05814"
       transform="matrix(0.26458333,0,0,0.26458333,353.72131,3.0389508)"
       rx="3.5090499"
       ry="3.5090499" />
    <rect
       style="opacity:0.5;fill:#000000;stroke-width:3.77953;stroke-linecap:round;stroke-linejoin:round;paint-order:markers stroke fill"
       id="rect1635"
       width="416.61072"
       height="144.38058"
       x="1566.793"
       y="378.08368"
       transform="matrix(0.26458333,0,0,0.26458333,353.72131,3.0389508)"
       rx="3.5090499"
       ry="3.5090499" />
    <rect
       style="opacity:0.5;fill:#000000;stroke-width:3.77953;stroke-linecap:round;stroke-linejoin:round;paint-order:markers stroke fill"
       id="rect1637"
       width="88.209389"
       height="86.717705"
       x="1876.3207"
       y="522.55371"
       transform="matrix(0.26458333,0,0,0.26458333,353.72131,3.0389508)"
       rx="3.5090499"
       ry="3.5090499" />
    <rect
       style="opacity:0.5;fill:#000000;stroke-width:3.77953;stroke-linecap:round;stroke-linejoin:round;paint-order:markers stroke fill"
       id="rect1639"
       width="1145.9277"
       height="201.23883"
       x="1375.6726"
       y="602.11945"
       transform="matrix(0.11123696,0,0,0.05947542,596.63506,169.02042)"
       rx="3.5090499"
       ry="3.5090499" />
    <g
       id="g1669"
       inkscape:transform-center-x="-7.2402879"
       inkscape:transform-center-y="65.098262"
       transform="rotate(90,537.74316,499.57473)">
      <rect
         style="opacity:0.5;fill:#000000;stroke-width:3.77953;stroke-linecap:round;stroke-linejoin:round;paint-order:markers stroke fill"
         id="rect1641"
         width="190.12706"
         height="34.865925"
         x="1916.3246"
         y="730.68323"
         transform="matrix(0.20530789,0,0,0.26458333,-176.42521,-49.310992)"
         rx="1.4752899"
         ry="0.78879601" />
      <path
         d="m 547.0909,177.04037 c 0.0248,0.006 0.0656,0.0186 0.11977,0.0476 0.0409,0.0219 0.0931,0.0551 0.15782,0.10855 0.11038,0.0911 0.2345,0.22174 0.39408,0.42556 0.003,0.003 0.005,0.007 0.008,0.01 0.10456,0.13028 0.22611,0.29456 0.37582,0.48272 0.0609,0.0765 0.13252,0.16429 0.21152,0.25442 0.11272,0.12861 0.25493,0.27883 0.42566,0.4245 0.15581,0.13294 0.34462,0.27016 0.57063,0.38829 0.006,0.003 0.0122,0.006 0.0182,0.009 0.42825,0.21373 0.87224,0.33481 1.31644,0.41082 0.39777,0.068 0.78992,0.0988 1.13795,0.13159 0.34866,0.0327 0.64941,0.059 0.93121,0.11175 0.26708,0.05 0.47644,0.11723 0.64755,0.21008 l -0.0111,-0.006 c 0.14114,0.0873 0.22359,0.17545 0.25908,0.24247 l -0.18253,-0.33415 c -0.0328,-0.0875 -0.0536,-0.18024 -0.0614,-0.27506 -0.008,-0.0946 -0.002,-0.18202 0.0113,-0.25895 0.0256,-0.1499 0.0783,-0.25705 0.10563,-0.30792 0.0311,-0.0577 0.047,-0.0785 0.0455,-0.081 -0.002,-0.003 -0.02,0.0136 -0.0575,0.0523 l 0.0642,-0.0679 c -0.11797,0.10778 -0.26053,0.21123 -0.43067,0.31903 -0.18541,0.11747 -0.38818,0.23059 -0.60403,0.35307 l 0.0224,-0.0129 c -0.36994,0.20365 -0.71934,0.38154 -1.05094,0.53819 -0.54059,0.25537 -1.08749,0.47929 -1.64191,0.66365 -0.20247,0.0603 -0.32551,0.0984 -0.4557,0.12822 -0.1282,0.0294 -0.20129,0.0349 -0.24508,0.0343 l 0.058,0.003 c 0.0174,0.004 0.1771,0.0379 0.28027,0.0871 a 1.2831242,1.2831242 90 0 0 -1.10548,2.31594 c 0.21095,0.10069 0.41982,0.14926 0.63141,0.1679 0.0193,0.002 0.0387,0.002 0.058,0.003 0.32766,0.0107 0.62958,-0.0339 0.89756,-0.095 0.24143,-0.055 0.47235,-0.12816 0.64175,-0.18035 0.0113,-0.003 0.0226,-0.007 0.0338,-0.0107 0.67546,-0.22598 1.3279,-0.49835 1.95597,-0.80282 0.38115,-0.18477 0.77706,-0.39297 1.1897,-0.62817 0.007,-0.004 0.0151,-0.008 0.0224,-0.0129 0.19022,-0.11584 0.45973,-0.27813 0.71256,-0.45272 0.24133,-0.16664 0.51532,-0.37606 0.77544,-0.63912 0.006,-0.006 0.0113,-0.0111 0.0174,-0.0161 0.006,-0.005 0.0126,-0.01 0.0187,-0.0145 0.006,-0.005 0.0119,-0.0104 0.0166,-0.0167 0.005,-0.006 0.008,-0.0134 0.0115,-0.0206 0.004,-0.008 0.0326,-0.0434 0.0772,-0.10082 0.0397,-0.0511 0.1074,-0.14037 0.17125,-0.25267 0.063,-0.11088 0.14335,-0.28006 0.18149,-0.49585 0.0193,-0.1094 0.0277,-0.22995 0.0177,-0.35832 -0.01,-0.12844 -0.0376,-0.25538 -0.0828,-0.37766 -0.0221,-0.0599 -0.0444,-0.12001 -0.0742,-0.17654 -0.0298,-0.0565 -0.0681,-0.10799 -0.10837,-0.15761 -0.32294,-0.39828 -0.7252,-0.6696 -1.10184,-0.84965 -0.004,-0.002 -0.007,-0.004 -0.0111,-0.006 -0.4598,-0.22341 -0.9212,-0.33107 -1.32591,-0.39132 -0.40642,-0.0605 -0.82303,-0.081 -1.13167,-0.0991 -0.39205,-0.0234 -0.67352,-0.0364 -0.96305,-0.076 -0.29868,-0.0409 -0.5192,-0.10138 -0.69834,-0.18338 l 0.0182,0.009 c -0.0527,-0.024 -0.10739,-0.0578 -0.16668,-0.10465 -0.0662,-0.0523 -0.13421,-0.11758 -0.20544,-0.19479 -0.049,-0.0532 -0.098,-0.11021 -0.14671,-0.16917 -0.11706,-0.1417 -0.24217,-0.30658 -0.3802,-0.47629 -0.20917,-0.2625 -0.43367,-0.51499 -0.69786,-0.73712 -0.1634,-0.13739 -0.32906,-0.25208 -0.49797,-0.34623 -0.23498,-0.13098 -0.44924,-0.20698 -0.62434,-0.25244 a 1.0879397,1.0879397 90 0 0 -0.54682,2.10604 z"
         id="path1643"
         inkscape:path-effect="#path-effect1647;#path-effect1651"
         inkscape:original-d="m 547.36431,175.98735 c 1.15437,0.31044 1.51908,1.74373 2.5144,2.2225 1.45016,0.69756 3.5886,-0.004 4.71449,1.3133 0.49105,0.57447 -4.79805,3.17359 -5.63494,2.76803"
         style="fill:#000000;fill-rule:nonzero;stroke:none;stroke-width:1px;stroke-linecap:butt;stroke-linejoin:miter;stroke-opacity:1"
         transform="translate(-301.33096,-49.351392)" />
      <path
         d="m 548.91336,178.08862 c -0.93042,-1.014 -0.22454,-2.621 -1.14138,-3.64165 -0.88013,-1.0252 -2.34966,-1.202 -3.61899,-1.07315 -1.69833,0.19294 -3.37429,0.76937 -4.78383,1.74481 -1.11098,0.76964 -1.97052,1.89902 -2.33786,3.2074 -0.40391,1.39723 -0.76057,2.84496 -1.59545,4.06231 -1.42891,2.13806 -3.47238,3.75045 -5.4326,5.37252 -2.01958,1.35985 -4.20935,2.47693 -6.09742,4.02686 -0.41948,0.24647 -1.04111,1.10934 -0.13307,1.08086 2.44951,0.36313 4.92744,0.47868 7.3887,0.73943 4.36924,0.42112 8.73816,0.84751 13.11053,1.23386 2.52328,0.28234 5.0976,0.86407 7.62616,0.30936 0.1917,-0.0578 0.82989,-0.12871 0.30443,-0.26464 -0.79648,-0.35309 -1.68083,-0.88132 -1.89147,-1.7912 -0.18956,-0.40348 0.5765,-0.87885 -0.0805,-1.04538 -0.54612,-0.24752 -1.25967,-0.3908 -1.49849,-1.01889 -0.41087,-0.96704 -0.0186,-2.02538 0.26964,-2.96916 0.28251,-0.94845 0.73934,-1.93516 0.5248,-2.94405 -0.2042,-0.83849 -1.11622,-1.19689 -1.88494,-1.31718 -0.61713,-0.10707 -1.24621,-0.12578 -1.87123,-0.11544"
         id="path1653"
         inkscape:path-effect="#path-effect1657;#path-effect1661"
         inkscape:original-d="m 548.91336,178.08862 c -0.90757,-0.9949 -0.26396,-2.51413 -1.05515,-3.53579 -1.79441,-2.31712 -6.50854,-0.84579 -8.41873,0.51521 -3.03079,2.15942 -2.11885,4.18818 -3.81649,7.02109 -1.28214,2.13956 -3.62522,4.02796 -5.52269,5.59666 -0.86792,0.71754 -7.21471,4.15349 -6.82477,5.03094 0.10562,0.23767 4.16313,0.55045 5.45533,0.66675 4.94394,0.44495 9.84967,0.96867 14.79451,1.38401 2.8708,0.24113 6.05273,1.10024 8.91263,0.24246 0.10022,-0.0301 -1.12058,-0.36565 -1.77355,-1.19207 -0.79026,-1.00018 -0.0345,-1.47565 -0.1347,-1.56585 -0.48541,-0.4369 -1.25997,-0.38889 -1.66129,-0.97993 -1.68879,-2.4871 4.33785,-7.72624 -3.0981,-7.58681"
         style="fill:#000000;fill-rule:nonzero;stroke:none;stroke-width:1px;stroke-linecap:butt;stroke-linejoin:miter;stroke-opacity:1"
         transform="translate(-301.33096,-49.351392)" />
      <path
         style="fill:#000000;stroke:none;stroke-opacity:1;stroke-linejoin:miter;stroke-linecap:butt;stroke-width:1px"
         d="m 2072.9094,1954.9607 c -15.3769,24.9475 -20.0099,54.9491 -28.3191,82.6698 -3.39,11.3095 -6.9339,22.2237 -7.1398,34.1533 -0.01,0.2918 0.07,6.993 1.0799,8.4506 4.5717,6.6003 13.1513,-11.5436 14.6996,-14.0123 1.0903,-1.7386 2.9779,-4.6096 3.7798,-4.2928 1.0191,0.4027 0.7239,4.2702 0.6001,6.1557 -0.6189,9.4211 -1.8274,18.7972 -2.16,28.2406 -0.2308,6.5547 -0.042,13.1066 0.18,19.655 0.047,1.4001 -0.4372,4.6143 0,6.0477 0.08,0.2608 0.28,0.468 0.42,0.702 0.2,0.531 0.4457,1.0469 0.6,1.5929 2.7146,9.6059 2.8493,20.1244 4.0199,29.9955 0.8206,6.9205 2.7238,14.1908 2.5199,21.1669 -0.018,0.6026 -1.4016,3.2886 -1.5,3.7258 -0.3166,1.4069 -0.5336,2.8359 -0.72,4.2659 -0.9453,7.2552 -0.968,15.294 4.0199,21.1939 1.1106,1.3136 3.2156,2.6661 5.0398,2.4569 6.5892,-0.7558 6.6017,-15.614 9.5997,-16.1722 3.9152,-0.7291 5.005,4.2545 6.4198,6.1557 0.3967,0.5329 1.4217,1.795 1.62,1.1609 0.7753,-2.4788 -2.2525,-10.3968 -2.6399,-11.7444 -1.3947,-4.8512 -2.6244,-8.8367 -3.1199,-13.7423 -0.2626,-2.5994 -1.0071,-5.2984 -0.36,-7.8296 0.5471,-2.1399 1.7141,-3.3712 1.8599,-5.6967 0.3341,-5.326 0.12,-10.7994 0.12,-16.1452 0,-1.2827 0.5453,-2.2188 0.36,-3.5908 -0.782,-5.7901 -4.3326,-11.1863 -6.3598,-16.5232 -5.6145,-14.7809 -7.017,-17.5554 -3.8998,-31.4265 0.1428,-0.6357 5.9014,9.3556 7.3197,8.5046 6.2303,-3.7381 -0.8132,-25.0392 -1.6799,-29.2665 -1.3629,-6.647 -2.1463,-7.3752 -0.06,-4.9948 1.5334,1.7498 1.4563,2.2472 1.3199,-3.1318 -0.2079,-8.2042 -1.2233,-13.729 0,-21.9499 0.688,-4.6232 0.7466,-3.1286 -2.0399,-9.9355 -0.7014,-1.7134 -1.7917,-3.2411 -2.6399,-4.8868 -2.5034,-4.8565 -5.925,-10.8857 -7.8598,-16.3881 -0.8997,-2.5588 -0.021,-14.6858 0,-16.7122 0.012,-1.1366 -0.073,-3.434 0.6,-4.5088 0.256,-0.409 0.8386,0.561 1.3199,0.594 0.7012,0.048 1.571,0.2737 2.1,-0.189 2.5752,-2.2525 10.043,-18.7929 9.3597,-23.0839 -3.7799,-8.0186 -8.4597,-10.6644 -8.4597,-10.6644 z"
         id="path1889" />
      <path
         d="m 560.03306,489.15612 c 0.13543,-0.0193 0.31076,-0.0303 0.53994,-0.0132 0.18161,0.0135 0.39277,0.044 0.65428,0.1006 0.54389,0.11777 0.84999,0.2295 1.63473,0.44524 4.50499,1.38937 8.83618,3.45433 13.73591,6.02985 2.56889,1.38682 4.88808,2.61745 7.01309,4.18605 0.0188,0.0138 0.0377,0.0274 0.057,0.0405 0.75813,0.51475 1.47275,1.02586 2.26428,1.52656 0.89243,0.56452 1.75609,1.03235 2.6678,1.38702 0.33296,0.12953 0.67497,0.25524 1.03198,0.26867 0.35702,0.0134 0.72301,-0.0936 0.9951,-0.32513 0.27209,-0.23153 0.43631,-0.57633 0.47663,-0.93131 0.0403,-0.35499 -0.0364,-0.71169 -0.11894,-1.05929 -6.8e-4,-0.003 -0.001,-0.006 -0.002,-0.009 -0.0407,-0.16818 -0.0976,-0.30982 -0.15078,-0.42053 -0.0558,-0.11612 -0.11576,-0.21517 -0.1696,-0.29536 -0.10869,-0.16189 -0.22516,-0.29521 -0.31748,-0.39296 -0.19236,-0.20369 -0.41136,-0.38952 -0.566,-0.51735 -0.18302,-0.15129 -0.34648,-0.27986 -0.47267,-0.38242 -0.13112,-0.10658 -0.22288,-0.19221 -0.23117,-0.18451 l -0.0683,-0.0814 c -0.4158,-0.43182 -0.81186,-0.78329 -1.12203,-1.12029 -0.14135,-0.15358 -0.26142,-0.2992 -0.35775,-0.4414 -0.0869,-0.1282 -0.15363,-0.25246 -0.19898,-0.37676 l 0.0459,0.1979 c 0.005,0.052 0.007,0.13344 -0.0149,0.23336 -0.0208,0.0966 -0.0585,0.18696 -0.10772,0.2641 -0.0455,0.0713 -0.0921,0.11764 -0.1234,0.14295 -0.0318,0.0253 -0.0436,0.0277 -0.0403,0.0236 0.008,-0.01 0.0829,-0.0511 0.19361,-0.089 0.10809,-0.037 0.2334,-0.0691 0.37254,-0.0995 0.69136,-0.12129 1.41322,-0.16668 2.278,-0.19654 0.75105,-0.0259 1.71466,-0.041 2.61685,-0.12735 l -0.0108,9.5e-4 c 0.84009,-0.0742 1.87564,-0.14918 2.85685,-0.29835 0.94653,-0.14389 1.96962,-0.37218 2.97608,-0.80061 0.38018,-0.1329 0.72133,-0.342 1.00567,-0.6067 0.30003,-0.27931 0.54275,-0.62622 0.69786,-1.01945 0.15331,-0.38868 0.22308,-0.82939 0.16619,-1.28628 -0.0526,-0.42236 -0.21049,-0.83174 -0.47193,-1.19626 -0.32052,-0.54115 -0.69743,-1.01069 -1.0947,-1.42915 -0.40992,-0.43178 -0.84717,-0.81487 -1.26852,-1.1645 -0.42604,-0.35353 -0.7851,-0.63323 -1.21114,-0.98676 -0.37934,-0.31598 -0.71878,-0.6188 -1.0163,-0.93569 -0.004,-0.004 -0.008,-0.009 -0.0125,-0.0132 -0.38563,-0.39952 -0.71846,-0.82162 -0.93482,-1.24259 -0.1054,-0.20508 -0.17663,-0.39744 -0.21642,-0.57637 -0.0322,-0.14499 -0.0442,-0.28263 -0.0366,-0.41586 0.067,-0.22307 0.16152,-0.44315 0.28284,-0.66469 0.14012,-0.25588 0.31489,-0.51168 0.52221,-0.77429 0.42721,-0.54115 0.92611,-1.03318 1.49209,-1.615 0.61457,-0.61228 1.2719,-1.18736 1.96822,-1.80303 0.69379,-0.61343 1.41792,-1.26006 2.09899,-1.9704 0.0775,-0.0808 0.14524,-0.17054 0.20128,-0.26749 0.0694,-0.11999 0.13511,-0.25481 0.18696,-0.40334 0.052,-0.14905 0.0933,-0.32121 0.10533,-0.51148 0.0123,-0.19347 -0.006,-0.39964 -0.0688,-0.60746 -0.063,-0.20896 -0.1628,-0.39378 -0.2854,-0.551 -0.12082,-0.15494 -0.25562,-0.27292 -0.38288,-0.3619 -0.12669,-0.0886 -0.25225,-0.15291 -0.3639,-0.2003 -0.2182,-0.0926 -0.43161,-0.14076 -0.60065,-0.16861 -0.17504,-0.0288 -0.34564,-0.0427 -0.49465,-0.0497 -0.15127,-0.007 -0.29701,-0.008 -0.42363,-0.007 -0.12439,0.001 -0.24788,0.004 -0.33496,0.006 -0.10732,0.002 -0.14395,0.002 -0.17421,0.002 -0.0323,-4.7e-4 -0.0647,-0.001 -0.097,-3e-5 -1.51522,0.0535 -3.00855,0.2273 -4.41491,0.40457 -1.05403,0.13286 -2.03182,0.26408 -3.03501,0.37085 -0.36601,0.0389 -0.73315,0.0743 -1.10072,0.10416 -0.62992,-0.0274 -1.26112,-0.0822 -1.86844,-0.19336 -0.60984,-0.11158 -1.1877,-0.27842 -1.71606,-0.52653 -0.004,-0.002 -0.008,-0.004 -0.0119,-0.006 -0.004,-0.003 -0.007,-0.006 -0.0101,-0.009 -0.006,-0.007 -0.0101,-0.0149 -0.0158,-0.0219 -0.003,-0.003 -0.006,-0.007 -0.0101,-0.009 -0.004,-0.002 -0.008,-0.003 -0.0129,-0.003 -0.005,1.6e-4 -0.009,0.002 -0.0127,0.004 -0.004,0.002 -0.007,0.006 -0.01,0.009 -2.3e-4,2.7e-4 0.005,0.004 0.005,0.005 -1.4e-4,2.8e-4 -0.003,-0.004 -0.003,-0.005 -5.2e-4,-9.2e-4 0.001,0.004 -0.002,0.0179 -0.003,0.0135 -0.0142,0.0342 -0.0149,0.0348 l 0.0698,-0.0946 c 0.4007,-0.59525 0.9359,-1.12154 1.59053,-1.64512 0.66798,-0.53425 1.35633,-0.98863 2.14199,-1.5461 0.59869,-0.42181 1.19398,-0.78777 1.88118,-1.23793 0.65759,-0.43077 1.35206,-0.9097 2.0033,-1.4806 0.16348,-0.1433 0.32693,-0.29115 0.44487,-0.47377 0.11795,-0.18261 0.18678,-0.39928 0.1787,-0.61653 -0.008,-0.21724 -0.0928,-0.4282 -0.22395,-0.60157 -0.13117,-0.17337 -0.30511,-0.30871 -0.47875,-0.43952 -0.14535,-0.10951 -0.29684,-0.18512 -0.44103,-0.23602 -0.14276,-0.0504 -0.27817,-0.0766 -0.39695,-0.0893 -0.23103,-0.0249 -0.43852,-0.003 -0.5944,0.0242 -0.1611,0.0282 -0.31135,0.0704 -0.44092,0.11304 -0.13169,0.0434 -0.25868,0.0928 -0.37531,0.14196 -0.23112,0.0974 -0.45711,0.20899 -0.63967,0.30118 -0.20441,0.10323 -0.33062,0.16949 -0.4375,0.21973 -0.0313,0.0147 -0.0619,0.0306 -0.092,0.0477 -4.22509,2.39514 -7.83765,5.60978 -11.04366,8.81188 -1.69,1.63691 -3.28601,3.19176 -5.01487,4.57503 -1.77109,1.41705 -3.57942,2.56702 -5.55111,3.32807 -0.008,0.003 -0.0156,0.006 -0.0234,0.009 -1.23656,0.50322 -2.54541,0.72395 -3.88988,0.80107 -1.41225,0.081 -2.87241,0.001 -4.27932,-0.0888 -0.1046,-0.007 -0.20959,-6.5e-4 -0.31314,0.0156 -0.0289,0.005 -0.0764,0.0107 -0.17957,0.0227 -0.0917,0.0107 -0.21083,0.0242 -0.33515,0.0407 -0.12761,0.0169 -0.27037,0.038 -0.41599,0.0655 -0.14666,0.0278 -0.31143,0.0649 -0.47649,0.11672 -0.16104,0.0506 -0.3716,0.13013 -0.57849,0.26112 -0.10867,0.0688 -0.23409,0.16288 -0.35411,0.29028 -0.12338,0.13097 -0.24805,0.3063 -0.33335,0.52257 -0.0895,0.22684 -0.12489,0.46866 -0.10621,0.70909 0.0185,0.23767 0.087,0.44228 0.16689,0.60636 0.0801,0.16454 0.17736,0.3006 0.2688,0.40906 0.082,0.0972 0.16903,0.18385 0.25495,0.26065 0.25537,0.24732 0.56696,0.48308 0.68935,0.58072 0.21988,0.17541 0.30178,0.25803 0.35445,0.32426 a 1.3854224,1.3854224 90 0 0 2.16858,-1.72478 c -0.24924,-0.31336 -0.52588,-0.55045 -0.79813,-0.76672 -0.22921,-0.18207 -0.37629,-0.29125 -0.49898,-0.4119 -0.0219,-0.0215 -0.0443,-0.0424 -0.0675,-0.0625 -0.0146,-0.0126 -0.007,-0.008 0.0128,0.0157 0.0186,0.0221 0.0612,0.0765 0.1036,0.16361 0.0427,0.0879 0.0907,0.22057 0.10389,0.39046 0.0135,0.17359 -0.0122,0.35265 -0.0785,0.52055 -0.0624,0.15812 -0.15094,0.27905 -0.22645,0.35918 -0.0728,0.0772 -0.13947,0.12456 -0.17949,0.14986 -0.084,0.0531 -0.0974,0.0485 -0.0721,0.0404 0.029,-0.009 0.0817,-0.023 0.16276,-0.0385 0.0775,-0.0148 0.1657,-0.0285 0.26419,-0.0417 0.0983,-0.0132 0.19138,-0.024 0.29395,-0.0362 0.0405,-0.005 0.0872,-0.0104 0.13575,-0.0166 1.36858,0.0861 2.92682,0.16781 4.47196,0.0783 1.53174,-0.0887 3.16229,-0.34878 4.75986,-0.99795 2.3096,-0.89419 4.35854,-2.21634 6.26768,-3.74481 1.85223,-1.48291 3.54704,-3.13815 5.21649,-4.75601 0.005,-0.005 0.0102,-0.01 0.0152,-0.0149 3.13142,-3.12993 6.5278,-6.13626 10.42063,-8.35151 0.14504,-0.0702 0.31915,-0.16068 0.45436,-0.22912 0.17105,-0.0866 0.32765,-0.16292 0.46766,-0.22206 0.0685,-0.0289 0.12394,-0.0498 0.16708,-0.0641 0.0413,-0.0136 0.066,-0.0183 0.0551,-0.0164 -0.0109,0.002 -0.0581,0.0137 -0.17399,0.001 -0.0566,-0.006 -0.13426,-0.0199 -0.22419,-0.0517 -0.0914,-0.0323 -0.19502,-0.0829 -0.2981,-0.16061 -0.17363,-0.13081 -0.34756,-0.26614 -0.47871,-0.43952 -0.13114,-0.17337 -0.21583,-0.38432 -0.2239,-0.60156 -0.008,-0.21723 0.0608,-0.43388 0.17869,-0.6165 0.11793,-0.18262 0.28134,-0.33049 0.44479,-0.47381 -0.50403,0.44199 -1.06983,0.83722 -1.69726,1.2482 -0.60396,0.3956 -1.31076,0.83393 -1.96182,1.29237 -0.69578,0.49341 -1.52197,1.04334 -2.27232,1.64286 -0.7637,0.61019 -1.51734,1.32223 -2.12614,2.21232 -0.26864,0.34978 -0.43695,0.74403 -0.51064,1.14757 -0.0775,0.42467 -0.0487,0.84866 0.0634,1.23828 0.11336,0.39414 0.31388,0.76092 0.58792,1.07043 0.2682,0.30291 0.60647,0.55046 0.99947,0.71396 0.78338,0.36531 1.58761,0.58964 2.35584,0.73219 0.80855,0.15003 1.60959,0.21505 2.33872,0.24639 0.0551,0.002 0.1102,0.001 0.16513,-0.003 0.42479,-0.0328 0.84467,-0.0723 1.25715,-0.11552 1.03886,-0.10874 2.06342,-0.24434 3.08925,-0.37204 1.38532,-0.17244 2.75707,-0.32834 4.12268,-0.37697 0.0959,0.002 0.19469,5e-4 0.27337,-8.7e-4 0.10592,-0.002 0.19942,-0.004 0.30074,-0.005 0.0983,-4.9e-4 0.18768,7.8e-4 0.26774,0.005 0.0813,0.004 0.13818,0.0106 0.17335,0.0167 0.041,0.007 0.0198,0.008 -0.035,-0.0152 -0.0304,-0.0128 -0.0821,-0.0375 -0.14415,-0.0809 -0.0627,-0.0438 -0.14211,-0.1109 -0.21835,-0.20861 -0.0781,-0.10008 -0.14422,-0.22142 -0.18597,-0.35983 -0.0414,-0.13739 -0.0512,-0.26611 -0.0444,-0.37438 0.007,-0.10521 0.0283,-0.18461 0.0449,-0.23247 0.0171,-0.0491 0.0302,-0.0713 0.0318,-0.0744 0.0266,-0.0493 0.0549,-0.0979 0.0892,-0.14226 0.0343,-0.0444 0.0732,-0.0849 0.11207,-0.12523 -0.59315,0.61632 -1.23866,1.19277 -1.93614,1.80716 -0.67774,0.59699 -1.41159,1.23571 -2.10279,1.92244 -0.005,0.005 -0.01,0.01 -0.0149,0.0151 -0.50666,0.51855 -1.14812,1.14768 -1.69331,1.83463 -0.27995,0.35275 -0.5502,0.73892 -0.78403,1.16303 -0.23494,0.42612 -0.43374,0.89168 -0.569,1.40129 -0.0162,0.0609 -0.0281,0.12296 -0.0359,0.18553 -0.0639,0.5078 -0.03,0.99557 0.0692,1.45157 0.099,0.45511 0.26243,0.87595 0.4561,1.25674 0.38359,0.75423 0.91153,1.40076 1.39848,1.91111 0.40905,0.43769 0.84555,0.82459 1.26076,1.17264 0.38038,0.31885 0.83176,0.67527 1.21214,0.99413 0.38396,0.32079 0.72238,0.62304 1.01884,0.93768 0.29684,0.31506 0.54089,0.63159 0.73288,0.96892 0.0163,0.0287 0.0319,0.0579 0.0494,0.086 0.0175,0.0281 0.0383,0.0538 0.0606,0.0783 -0.0137,-0.0151 -0.0379,-0.0588 -0.0464,-0.11772 -0.008,-0.0554 0.001,-0.0971 0.009,-0.11896 0.008,-0.0225 0.0122,-0.0274 0.0137,-0.0306 0.001,-0.003 0.003,-0.005 0.004,-0.007 l -0.14266,0.0526 c -0.71473,0.30399 -1.49461,0.4828 -2.318,0.6014 -0.86389,0.12443 -1.76547,0.18162 -2.67434,0.25315 -0.004,2.9e-4 -0.007,6.4e-4 -0.0108,9.5e-4 -0.78403,0.0667 -1.60091,0.0691 -2.43432,0.087 -0.90466,0.0195 -1.80603,0.0572 -2.72355,0.20541 -0.0107,0.002 -0.0213,0.004 -0.032,0.006 -0.19349,0.0334 -0.43473,0.0814 -0.68803,0.15431 -0.26431,0.0761 -0.57022,0.18706 -0.86635,0.35728 -0.15339,0.0882 -0.31224,0.19681 -0.46439,0.33152 -0.005,0.004 -0.009,0.008 -0.0139,0.0123 -0.16421,0.1475 -0.32094,0.32641 -0.45142,0.54133 -0.13831,0.22781 -0.23735,0.48017 -0.28947,0.75063 -0.0544,0.2824 -0.0529,0.55877 -0.014,0.81812 0.01,0.067 0.0274,0.13269 0.0459,0.1979 0.12078,0.42633 0.29276,0.79495 0.46909,1.1046 0.19195,0.33707 0.40542,0.63233 0.59714,0.87681 0.43265,0.55169 0.81778,0.95027 1.09325,1.2911 l -0.0683,-0.0814 c 0.17737,0.24245 0.38582,0.46096 0.54989,0.62533 0.17033,0.17063 0.33687,0.32648 0.47673,0.46292 0.13026,0.12708 0.24031,0.24416 0.26687,0.28354 0.0124,0.0184 0.005,0.0201 -0.0338,-0.0342 -0.0175,-0.0245 -0.0457,-0.068 -0.0765,-0.13077 -0.0291,-0.0593 -0.0675,-0.1504 -0.0967,-0.26988 -5e-4,-0.002 -9.9e-4,-0.004 -0.001,-0.006 -0.084,-0.34983 -0.16252,-0.70859 -0.12435,-1.06633 0.0382,-0.35773 0.20044,-0.70654 0.4732,-0.94113 0.27276,-0.2346 0.64206,-0.34283 1.00145,-0.32624 0.35938,0.0166 0.70185,0.14955 1.03447,0.28664 -0.63499,-0.26171 -1.28635,-0.6174 -2.05343,-1.11198 -0.73048,-0.47099 -1.29021,-0.88041 -2.13581,-1.45889 -2.36359,-1.74754 -4.92703,-3.09935 -7.4282,-4.44357 -0.006,-0.003 -0.0112,-0.006 -0.0169,-0.009 -4.9594,-2.60062 -9.53412,-4.78492 -14.39211,-6.27301 -0.0197,-0.006 -0.0394,-0.0118 -0.0593,-0.0171 -0.61126,-0.16206 -1.18953,-0.34602 -1.86427,-0.48646 -0.39206,-0.0816 -0.76898,-0.13739 -1.14409,-0.16262 -0.48441,-0.0326 -0.90964,-0.0101 -1.28621,0.0435 a 1.773653,1.773653 90 0 0 0.5,3.5119 z"
         id="path-1-60"
         inkscape:path-effect="#path-effect2155;#path-effect2157"
         inkscape:original-d="m 559.78306,487.40017 c 0.43574,0 0.88008,-0.0861 1.30724,0 6.12713,1.23528 15.39055,6.06634 20.75869,9.17546 2.12876,1.23293 5.24807,3.83548 7.40771,4.63535 0.45068,0.16693 -0.67944,-0.66383 -1.97158,-2.06368 -1.80358,-1.95392 -2.3935,-3.11302 0.9215,-3.47651 1.43868,-0.15776 11.45155,0.0818 10.57936,-2.65105 -0.87308,-2.73567 -5.77234,-4.25923 -6.22189,-7.74676 -0.29568,-2.29374 4.74439,-6.06464 6.22903,-7.55626 0.29459,-0.29597 0.93774,-0.79103 0.63577,-1.07947 -0.81342,-0.77696 -9.00702,0.65714 -10.34364,0.65086 -0.8637,-0.004 -1.72647,-0.13936 -2.57162,-0.31749 -7.47869,-1.57624 4.00803,-7.12317 5.64328,-8.81035 0.3153,-0.32532 -0.91028,0.12744 -1.32153,0.31749 -1.12851,0.52151 -3.22895,1.94664 -3.85743,2.39705 -1.00966,0.7236 -1.98789,1.49179 -2.94308,2.28592 -5.27744,4.38764 -10.20526,11.1219 -17.17985,12.93772 -2.16859,0.56459 -4.96214,0.45206 -7.17912,0.30162 -0.073,-0.005 -1.856,0.21734 -1.67869,0.53973 0.3036,0.55203 1.10725,0.94036 1.49297,1.44458"
         style="fill:#ff6600;fill-rule:nonzero;stroke:none;stroke-width:1px;stroke-linecap:butt;stroke-linejoin:miter;stroke-opacity:1"
         transform="translate(-301.33096,-353.72131)" />
      <path
         d="m 572.26982,493.55755 c 2.28391,0.17304 4.87998,0.7427 8.17863,2.05434 2.60332,1.03516 4.91031,2.21158 7.99623,3.74406 2.51523,1.25311 5.37989,2.57375 8.52116,3.83041 0.0366,0.0147 0.0738,0.0279 0.11139,0.0399 0.35167,0.11206 1.10028,0.38831 1.71553,0.53391 0.33989,0.0804 0.72446,0.14677 1.13711,0.16117 0.41095,0.0143 0.85395,-0.0226 1.31211,-0.14973 0.0933,-0.0259 0.18639,-0.054 0.27361,-0.0959 0.0872,-0.042 0.16723,-0.0973 0.24555,-0.15416 0.2608,-0.18941 0.4948,-0.42552 0.67845,-0.71319 0.18393,-0.2881 0.29663,-0.59558 0.35058,-0.90299 0.0529,-0.30148 0.0465,-0.58496 0.0127,-0.83396 -0.0335,-0.24728 -0.0955,-0.47319 -0.16445,-0.66945 -0.13478,-0.38368 -0.32235,-0.7265 -0.47663,-0.98516 -0.16101,-0.26996 -0.31129,-0.49313 -0.39811,-0.63122 -0.006,-0.009 -0.0115,-0.0184 -0.0174,-0.0275 -0.41971,-0.64578 -0.89188,-1.24229 -1.3156,-1.77206 -0.21012,-0.2627 -0.41489,-0.51687 -0.61295,-0.77108 -0.58227,-0.74736 -1.06372,-1.44253 -1.35976,-2.19299 l 0.0255,0.0705 c -0.004,-0.009 0.0107,0.0383 0.006,0.11894 -0.005,0.0869 -0.0286,0.18021 -0.0718,0.26515 -0.0406,0.0798 -0.0846,0.12578 -0.10428,0.14296 -0.0194,0.0169 -0.0143,0.007 0.0179,-0.013 0.0748,-0.0466 0.21614,-0.10804 0.4264,-0.16798 0.19982,-0.057 0.41485,-0.0997 0.62124,-0.13408 1.77332,-0.27897 3.57221,-0.31982 5.55406,-0.34626 1.8277,-0.0244 3.83581,-0.036 5.8255,-0.28601 0.22558,0.005 0.45259,-0.0147 0.67668,-0.064 0.28994,-0.0638 0.56904,-0.17589 0.82313,-0.33992 0.25307,-0.16337 0.46932,-0.37058 0.64042,-0.6109 0.16978,-0.23846 0.2889,-0.50073 0.35942,-0.77117 0.13999,-0.53683 0.0866,-1.09289 -0.11657,-1.5856 -0.19935,-0.48344 -0.5408,-0.90455 -0.98864,-1.21892 -0.0733,-0.0584 -0.11803,-0.1023 -0.14889,-0.13277 -0.0144,-0.0142 -0.009,-0.009 0.009,0.0261 0.0134,0.0258 0.0656,0.12616 0.0939,0.28134 0.0151,0.0826 0.0259,0.19337 0.0141,0.3242 -0.0121,0.1335 -0.0473,0.2822 -0.11869,0.4321 -0.0718,0.15075 -0.16872,0.27841 -0.27752,0.38024 -0.10643,0.0996 -0.2131,0.16432 -0.30002,0.20547 -0.0859,0.0407 -0.15777,0.0609 -0.20457,0.0711 -0.0475,0.0103 -0.079,0.0125 -0.0913,0.0126 -0.0268,4e-4 0.008,-0.005 0.0842,0.002 0.1072,0.009 0.21511,0.0113 0.32194,-0.001 2.47727,-0.29516 4.97054,-0.037 7.68683,0.20836 1.33229,0.12034 2.70936,0.2351 4.09655,0.25641 1.39226,0.0214 2.81518,-0.0506 4.25439,-0.30985 0.2719,-0.049 0.54809,-0.10407 0.78953,-0.23837 0.24143,-0.13429 0.44106,-0.35054 0.53112,-0.61172 0.0901,-0.26119 0.0659,-0.55481 -0.0432,-0.80861 -0.10914,-0.2538 -0.29587,-0.46497 -0.48309,-0.66814 -0.1597,-0.17329 -0.33278,-0.3082 -0.49856,-0.41401 -0.16534,-0.10553 -0.33185,-0.18748 -0.48602,-0.25254 -0.30084,-0.12695 -0.61227,-0.21291 -0.86314,-0.27667 -0.26312,-0.0669 -0.5007,-0.12041 -0.6925,-0.17215 -0.20596,-0.0556 -0.32427,-0.0984 -0.40163,-0.13374 -0.0179,-0.008 -0.0355,-0.0169 -0.0531,-0.0256 -0.0176,-0.009 -0.0356,-0.0167 -0.0538,-0.0241 -0.64669,-0.25947 -1.25684,-0.46947 -1.78067,-0.70053 -0.53808,-0.23735 -0.96427,-0.4831 -1.3015,-0.78708 l 0.35914,0.56656 c 0.0119,0.0438 0.023,0.11485 0.0117,0.20231 -0.0111,0.0862 -0.0395,0.15236 -0.0636,0.19227 -0.0229,0.0379 -0.0353,0.0437 -0.0244,0.0304 0.0121,-0.0147 0.0427,-0.0435 0.0953,-0.0816 0.11105,-0.0805 0.26983,-0.16737 0.46666,-0.25791 0.19092,-0.0878 0.37866,-0.162 0.57,-0.23965 0.77969,-0.25435 1.60327,-0.3986 2.46404,-0.50262 0.39832,-0.0481 0.80221,-0.0874 1.21062,-0.1251 0.51571,-0.0476 1.05212,-0.0941 1.5849,-0.15292 0.20958,-0.0232 0.4198,-0.047 0.62445,-0.0978 0.20466,-0.0508 0.40405,-0.12906 0.57868,-0.24724 0.17462,-0.11819 0.32329,-0.27678 0.42011,-0.46409 0.0968,-0.18732 0.14029,-0.40238 0.12001,-0.61226 -0.0203,-0.20988 -0.10413,-0.41268 -0.23527,-0.5778 -0.13114,-0.16512 -0.3079,-0.29182 -0.50238,-0.3733 -0.19448,-0.0815 -0.40557,-0.11846 -0.61626,-0.12692 -0.21069,-0.008 -0.42138,0.011 -0.63128,0.0311 -4.2767,0.4096 -8.38953,1.16757 -12.43446,1.6047 -0.006,6.3e-4 -0.0118,0.001 -0.0176,0.002 -3.57853,0.4427 -7.18854,0.64468 -10.75089,0.77901 l 0.22436,2.2743 c 1.14791,-0.20729 2.34252,-0.33294 3.55811,-0.507 0.31221,-0.0447 0.63347,-0.0996 0.89803,-0.27129 0.13228,-0.0858 0.24775,-0.19897 0.32976,-0.33367 0.082,-0.13469 0.1297,-0.29048 0.13435,-0.44811 0.005,-0.15763 -0.0338,-0.31602 -0.10821,-0.45505 -0.0744,-0.13903 -0.18399,-0.25809 -0.31219,-0.34993 -0.25639,-0.18369 -0.57637,-0.24919 -0.88715,-0.30297 -1.03822,-0.17968 -2.05818,-0.15817 -3.01121,-0.0773 -0.96741,0.0821 -1.88883,0.22507 -2.75753,0.31935 -1.20213,0.12921 -2.43834,0.12361 -3.67641,0.0543 l 0.16067,0.0233 c -0.0378,-0.008 -0.0565,-0.0147 -0.0543,-0.0132 0.002,0.002 0.026,0.0114 0.067,0.0421 0.041,0.0308 0.0986,0.0835 0.15131,0.16457 0.0543,0.0835 0.0921,0.18004 0.10852,0.2817 0.016,0.099 0.009,0.18314 -0.004,0.24355 -0.0121,0.0589 -0.0293,0.0981 -0.0382,0.11576 -0.0145,0.0288 -0.0189,0.0228 0.0218,-0.0248 0.0361,-0.0422 0.0904,-0.0965 0.16266,-0.1593 0.0713,-0.062 0.15207,-0.12545 0.23686,-0.18726 0.0845,-0.0616 0.16932,-0.11892 0.24715,-0.16868 0.0784,-0.0501 0.14571,-0.0901 0.19486,-0.11764 0.0161,-0.009 0.0321,-0.0182 0.0477,-0.0281 0.63786,-0.40271 1.31033,-0.7631 2.00474,-1.10044 0.22084,-0.10728 0.44477,-0.21245 0.67191,-0.31639 0.14953,-0.0684 0.29933,-0.13756 0.43843,-0.22524 0.1391,-0.0877 0.26755,-0.19446 0.36806,-0.3246 0.10051,-0.13013 0.17209,-0.2837 0.19877,-0.44596 0.0267,-0.16225 0.008,-0.33211 -0.0568,-0.48338 -0.0645,-0.15127 -0.17376,-0.28264 -0.30915,-0.37596 -0.13538,-0.0933 -0.29552,-0.14846 -0.45892,-0.16688 -0.16339,-0.0184 -0.32944,-8.8e-4 -0.48938,0.0373 -0.15993,0.0382 -0.31419,0.0967 -0.46775,0.15547 -1.9629,0.75141 -3.88401,1.60655 -5.81325,2.37632 -1.90282,0.75924 -3.80287,1.43104 -5.76615,1.84788 -0.70552,0.1176 -1.38749,0.21771 -2.05526,0.25188 -0.67019,0.0343 -1.29626,1.3e-4 -1.88246,-0.13686 l 0.28097,0.10118 c -0.0294,-0.0188 0.006,-0.0102 0.0566,0.0495 0.0261,0.0308 0.0521,0.0704 0.0734,0.11773 0.0214,0.0474 0.0348,0.0948 0.042,0.13875 0.0142,0.0859 0.003,0.13758 0.004,0.14462 0.001,0.007 0.0152,-0.0245 0.0475,-0.0743 0.0747,-0.11488 0.1904,-0.25599 0.3552,-0.43013 0.0787,-0.0832 0.15949,-0.16441 0.24218,-0.24657 0.0768,-0.0763 0.16955,-0.16741 0.24408,-0.24394 0.0239,-0.0245 0.0493,-0.0476 0.072,-0.0733 0.0227,-0.0257 0.0392,-0.0561 0.0522,-0.0878 -0.006,0.0139 0.0133,-0.008 0.0589,-0.0521 0.0473,-0.0452 0.10633,-0.0983 0.18693,-0.16684 0.15677,-0.13331 0.36156,-0.29462 0.57146,-0.47239 0.10443,-0.0884 0.21609,-0.18643 0.32234,-0.28937 0.10516,-0.10189 0.22236,-0.22521 0.32816,-0.36559 0.0543,-0.072 0.11112,-0.15585 0.16355,-0.25083 0.0524,-0.095 0.10574,-0.21065 0.1457,-0.34503 0.0405,-0.13607 0.0694,-0.29883 0.0647,-0.48098 -0.005,-0.18664 -0.0446,-0.37771 -0.12588,-0.56191 -0.0449,-0.10183 -0.0911,-0.20372 -0.15274,-0.29638 -0.0616,-0.0926 -0.13864,-0.17552 -0.22929,-0.24008 -0.0906,-0.0646 -0.19397,-0.11027 -0.30129,-0.13976 -0.10731,-0.0295 -0.21825,-0.043 -0.32881,-0.0558 -0.59582,-0.0686 -1.16148,-0.0443 -1.68133,0.0175 -0.52674,0.0626 -1.03675,0.16791 -1.48725,0.26556 -0.48881,0.10595 -0.89034,0.19855 -1.30871,0.27019 -0.41859,0.0717 -0.78953,0.10983 -1.14033,0.10508 l 0.57465,0.13481 c 0.0108,0.004 0.051,0.024 0.10626,0.0687 0.0567,0.0459 0.13348,0.12207 0.20199,0.23606 0.0714,0.11884 0.12087,0.25755 0.13903,0.4062 0.018,0.147 0.002,0.27407 -0.0225,0.36984 -0.024,0.0941 -0.0566,0.16111 -0.0771,0.19818 -0.0207,0.0373 -0.0379,0.0598 -0.0402,0.0629 -0.008,0.0114 0.0234,-0.0235 0.0776,-0.0677 0.0717,-0.0584 0.16606,-0.12577 0.2795,-0.19953 0.0749,-0.0487 0.15226,-0.0964 0.22869,-0.14202 0.10104,-0.0603 0.20007,-0.11688 0.28789,-0.16654 0.0921,-0.0521 0.17661,-0.0993 0.2488,-0.14122 0.44473,-0.25372 1.02983,-0.53824 1.56839,-0.93811 0.29509,-0.21909 0.59398,-0.48577 0.84908,-0.81695 0.25833,-0.33536 0.47348,-0.73951 0.58766,-1.22082 0.03,-0.12634 0.0592,-0.2536 0.0668,-0.38322 0.008,-0.12962 -0.007,-0.26131 -0.0513,-0.38341 -0.0442,-0.12211 -0.11742,-0.23286 -0.20845,-0.32546 -0.091,-0.0926 -0.19887,-0.16663 -0.30687,-0.23871 -0.23357,-0.15591 -0.48376,-0.26534 -0.74294,-0.33245 -0.2482,-0.0643 -0.49313,-0.0868 -0.72708,-0.0822 -0.4305,0.008 -0.83944,0.10943 -1.20122,0.22796 -0.33073,0.10836 -0.64849,0.24057 -0.93445,0.35456 -0.19464,0.0776 -0.36256,0.14186 -0.50966,0.18739 -0.0499,0.0154 -0.094,0.0277 -0.13294,0.0371 -0.0488,0.0118 -0.0973,0.0249 -0.14439,0.0421 -1.81434,0.66257 -3.78439,1.49636 -5.90554,2.25378 -1.80606,0.64492 -3.77396,1.24121 -5.83112,1.49016 -0.88219,0.0573 -2.00363,0.11126 -3.05362,0.28437 -0.52642,0.0868 -1.07181,0.20806 -1.61679,0.38727 -0.53354,0.17544 -1.07116,0.40793 -1.59455,0.72125 -0.0901,0.0539 -0.17218,0.12016 -0.24476,0.19601 0.0103,-0.0108 -0.0115,0.0119 -0.0634,0.0464 -0.0544,0.0362 -0.12808,0.0789 -0.22919,0.13216 -0.19432,0.10227 -0.45836,0.22253 -0.74763,0.38242 -0.14065,0.0777 -0.29669,0.17104 -0.44872,0.28184 -0.15053,0.10971 -0.3164,0.25038 -0.46506,0.42937 -0.15078,0.18152 -0.2909,0.41114 -0.37254,0.69236 -0.0828,0.28534 -0.0928,0.58081 -0.0368,0.87181 0.0129,0.0668 0.0273,0.1336 0.0517,0.19709 0.0244,0.0635 0.0584,0.12281 0.0934,0.18108 0.63197,1.0499 1.43447,1.94492 2.3038,2.72268 0.84012,0.75163 1.75168,1.40152 2.64108,1.97606 0.13491,0.12668 0.27776,0.23599 0.42724,0.32916 0.19112,0.11913 0.38489,0.20679 0.5747,0.27148 0.3764,0.12829 0.73948,0.16625 1.02304,0.18295 0.29792,0.0176 0.54363,0.0165 0.73157,0.0288 0.1995,0.013 0.31426,0.0363 0.39194,0.0648 l -0.34172,-0.19206 c 0.008,0.007 0.0154,0.0136 0.0229,0.0203 0.0423,0.0486 0.0775,0.0885 0.10288,0.11549 a 1.1807885,1.1807885 90 0 0 1.72228,-1.6158 c -0.0291,-0.031 -0.0743,-0.0761 -0.12949,-0.13058 -0.0191,-0.0188 -0.0375,-0.0384 -0.0564,-0.0573 -0.019,-0.019 -0.0397,-0.0361 -0.0612,-0.052 -0.0392,-0.029 -0.0834,-0.0615 -0.13047,-0.0963 -0.0528,-0.0391 -0.10548,-0.0786 -0.1621,-0.11188 -0.0566,-0.0333 -0.11774,-0.0582 -0.17962,-0.0802 -0.37439,-0.13331 -0.73677,-0.17536 -1.03398,-0.1933 -0.29556,-0.0179 -0.5472,-0.0155 -0.74385,-0.0262 -0.20102,-0.0109 -0.32236,-0.0317 -0.40788,-0.0601 -0.0389,-0.0129 -0.0691,-0.0272 -0.0947,-0.0428 -0.0251,-0.0153 -0.0539,-0.0369 -0.0869,-0.071 -0.064,-0.066 -0.13494,-0.12501 -0.21243,-0.17447 -0.86561,-0.55255 -1.70442,-1.14735 -2.45177,-1.81413 -0.74217,-0.66215 -1.37984,-1.38261 -1.86579,-2.18823 l 0.14511,0.37817 c 0.009,0.0495 0.0112,0.12615 -0.0136,0.21114 -0.0234,0.0803 -0.0586,0.12757 -0.0699,0.14098 -0.011,0.0131 0.004,-0.006 0.0477,-0.038 0.0466,-0.0341 0.11261,-0.0757 0.20498,-0.12681 0.18088,-0.10015 0.43224,-0.21617 0.70533,-0.35989 0.13519,-0.0712 0.28524,-0.15495 0.43154,-0.25207 0.10188,-0.0676 0.21255,-0.14864 0.32134,-0.24528 0.32526,-0.18394 0.66721,-0.32956 1.02377,-0.44642 0.4054,-0.13286 0.83022,-0.22869 1.26995,-0.30048 0.91965,-0.15015 1.90278,-0.19416 2.85979,-0.25391 0.0209,-0.001 0.0418,-0.003 0.0626,-0.006 2.32124,-0.27361 4.48994,-0.93432 6.36964,-1.60007 2.18531,-0.77399 4.1254,-1.58655 5.85664,-2.2127 0.0733,-0.0174 0.14395,-0.0362 0.21109,-0.0554 0.24695,-0.0707 0.49603,-0.16168 0.69326,-0.23463 0.33074,-0.12235 0.56134,-0.21014 0.7982,-0.27804 0.2504,-0.0718 0.40675,-0.0889 0.49757,-0.082 0.0449,0.003 0.0621,0.012 0.0642,0.0162 0.002,0.005 -0.0107,0.003 -0.0145,0.006 l -0.49977,-1.3308 c -0.0301,0.088 -0.0812,0.16762 -0.15707,0.25028 -0.081,0.0882 -0.1979,0.18758 -0.36911,0.30088 -0.30812,0.20389 -0.7732,0.41702 -1.35312,0.73042 -0.0476,0.0251 -0.1489,0.0785 -0.24775,0.13213 -0.0999,0.0542 -0.22338,0.12258 -0.35599,0.20039 -0.1,0.0587 -0.2099,0.12546 -0.32259,0.19838 -0.16367,0.10592 -0.34763,0.23408 -0.52258,0.37886 -0.13754,0.11382 -0.29531,0.25901 -0.43706,0.43264 -0.0709,0.0869 -0.14627,0.1911 -0.21444,0.31203 -0.0671,0.11902 -0.13472,0.2675 -0.17973,0.4423 -0.0452,0.17551 -0.0684,0.38142 -0.0413,0.60576 0.0272,0.22514 0.10149,0.43888 0.21619,0.63067 0.11133,0.18615 0.24904,0.33254 0.38728,0.44587 0.13562,0.11119 0.27759,0.1955 0.41187,0.2606 0.0896,0.0434 0.18092,0.0852 0.27778,0.10844 0.0969,0.0233 0.19726,0.0266 0.29687,0.0264 0.56468,-0.001 1.10451,-0.0731 1.61646,-0.17084 0.49013,-0.0936 0.97139,-0.21467 1.41441,-0.32088 0.43952,-0.10537 0.84571,-0.1973 1.2418,-0.25441 0.38292,-0.0552 0.7432,-0.0757 1.09327,-0.0451 l -1.01213,-0.73198 c -0.0554,-0.12692 -0.0819,-0.258 -0.0846,-0.38213 -0.003,-0.12001 0.0173,-0.21807 0.0387,-0.28728 0.021,-0.0681 0.0453,-0.1145 0.06,-0.13895 0.0156,-0.0259 0.0245,-0.0349 0.0258,-0.0339 0.003,0.002 -0.0247,0.0412 -0.0727,0.0943 -0.049,0.0542 -0.1138,0.11886 -0.19449,0.19498 -0.15689,0.148 -0.35829,0.32298 -0.56472,0.51944 -0.10018,0.0953 -0.20798,0.20232 -0.30967,0.3156 -0.0838,0.0934 -0.17756,0.2065 -0.2635,0.33511 -0.0361,0.0407 -0.0773,0.0864 -0.1236,0.13781 -0.082,0.0911 -0.17845,0.19842 -0.27684,0.31364 -0.1889,0.22123 -0.42144,0.51305 -0.6004,0.83715 -0.0906,0.16405 -0.18009,0.35868 -0.24009,0.57588 -0.0601,0.21749 -0.0969,0.48089 -0.0572,0.76782 0.0199,0.14395 0.0586,0.28909 0.11935,0.43137 0.0607,0.14215 0.14008,0.2736 0.23525,0.39293 0.18952,0.23764 0.42645,0.40897 0.67087,0.53344 0.0446,0.0227 0.0893,0.0453 0.13616,0.0628 0.0469,0.0174 0.0957,0.0287 0.14481,0.0384 0.84554,0.16709 1.68375,0.17514 2.48203,0.11026 0.79331,-0.0645 1.57158,-0.20349 2.2886,-0.34161 0.0117,-0.002 0.0235,-0.004 0.0351,-0.007 2.13639,-0.47052 4.16382,-1.20963 6.10857,-1.99987 1.97278,-0.80163 3.87926,-1.66115 5.77294,-2.39332 l -0.77677,-1.82924 c -0.23555,0.11157 -0.47017,0.22461 -0.70377,0.33994 -0.72407,0.35747 -1.45223,0.74576 -2.15999,1.18518 -0.0823,0.0456 -0.17595,0.10074 -0.27521,0.16288 -0.10852,0.0679 -0.22752,0.14663 -0.34874,0.23314 -0.12071,0.0861 -0.24763,0.18287 -0.37057,0.28712 -0.12155,0.10308 -0.24842,0.22126 -0.36417,0.35112 -0.11192,0.12555 -0.23794,0.28912 -0.3323,0.4851 -0.0484,0.1005 -0.0942,0.22124 -0.12173,0.35913 -0.0279,0.13945 -0.0377,0.30036 -0.009,0.4731 0.0288,0.17534 0.0937,0.34252 0.19202,0.49286 0.0958,0.14653 0.21509,0.26357 0.33557,0.3528 0.11921,0.0883 0.24418,0.15355 0.3635,0.20284 0.11965,0.0494 0.24313,0.0867 0.36604,0.11542 0.0528,0.0123 0.1066,0.0195 0.16067,0.0233 1.29623,0.0924 2.65038,0.12833 4.00917,0.0129 0.93871,-0.087 1.84712,-0.21179 2.717,-0.27057 0.86755,-0.0586 1.68094,-0.0521 2.45762,0.0972 l 0.0546,-2.16102 c -1.16412,0.13407 -2.38465,0.22537 -3.65053,0.41689 -0.18121,0.0274 -0.36292,0.0555 -0.53894,0.10657 -0.17602,0.051 -0.34655,0.12555 -0.49477,0.23335 -0.14821,0.10779 -0.27312,0.24921 -0.35358,0.41387 -0.0805,0.16466 -0.11535,0.35169 -0.0968,0.53402 0.0185,0.18233 0.0903,0.35845 0.20182,0.50388 0.11153,0.14543 0.26153,0.25961 0.4276,0.33715 0.33212,0.15506 0.71266,0.1558 1.07905,0.14547 3.5807,-0.10095 7.26619,-0.27092 10.94445,-0.69226 4.16392,-0.41775 8.27716,-1.14366 12.4118,-1.51281 l -0.24194,-2.4683 c -0.50505,0.0485 -1.00678,0.0849 -1.54298,0.12721 -0.41363,0.0327 -0.84653,0.0687 -1.28169,0.11531 -0.95307,0.10207 -1.98374,0.26082 -3.01273,0.58673 -0.0235,0.007 -0.0465,0.0163 -0.0697,0.0248 -0.16743,0.0617 -0.43639,0.15887 -0.7068,0.27446 -0.26757,0.11438 -0.59096,0.26901 -0.89459,0.47281 -0.1528,0.10256 -0.31388,0.22633 -0.46598,0.37503 -0.15112,0.14773 -0.30475,0.33119 -0.43028,0.55517 -0.12684,0.22633 -0.2233,0.49156 -0.25734,0.79065 -0.034,0.29904 -0.001,0.59598 0.0869,0.87978 0.0338,0.10846 0.0724,0.21657 0.1338,0.31215 0.0614,0.0956 0.14276,0.1764 0.22534,0.25441 0.61843,0.58421 1.31654,0.98063 1.98633,1.29371 0.63541,0.297 1.25204,0.52439 1.79001,0.75144 0.29377,0.15058 0.59689,0.25351 0.84914,0.32979 0.27458,0.083 0.52689,0.14664 0.73803,0.20695 0.22018,0.0629 0.36938,0.11399 0.46903,0.16159 0.0446,0.0213 0.0687,0.0379 0.0701,0.0409 0.001,0.002 -0.0196,-0.007 -0.0547,-0.0433 -0.19508,-0.19974 -0.38971,-0.40845 -0.50333,-0.66348 -0.11362,-0.25504 -0.1381,-0.55274 -0.0452,-0.81604 0.0929,-0.26329 0.29761,-0.47935 0.54303,-0.61247 0.24543,-0.13312 0.52481,-0.18681 0.79985,-0.23484 -1.21261,0.21176 -2.44541,0.27201 -3.71257,0.2458 -1.27102,-0.0263 -2.55433,-0.13868 -3.88324,-0.26576 -2.5702,-0.24579 -5.33882,-0.55506 -8.12735,-0.26047 -0.15047,-0.0115 -0.30509,-0.0146 -0.4595,-0.004 -0.10748,0.008 -0.2244,0.0228 -0.34606,0.0506 -0.12135,0.0277 -0.25776,0.0704 -0.39852,0.13763 -0.1419,0.0678 -0.29404,0.16339 -0.4371,0.2977 -0.14546,0.13657 -0.2702,0.30276 -0.36168,0.49536 -0.0911,0.19179 -0.13784,0.38571 -0.15391,0.56726 -0.0158,0.17896 -0.002,0.3407 0.0238,0.47659 0.0492,0.26313 0.14895,0.47758 0.23244,0.62643 0.0874,0.15577 0.1867,0.29231 0.27979,0.4061 0.18583,0.22714 0.40304,0.43205 0.61224,0.60268 0.0127,0.0103 0.0267,0.0188 0.0409,0.0269 0.007,0.004 0.014,0.008 0.0203,0.0137 0.006,0.005 0.0118,0.0114 0.017,0.0176 0.008,0.01 -0.0323,-0.0151 -0.0625,-0.0809 -0.0297,-0.0647 -0.0544,-0.17548 -0.0201,-0.31655 0.0173,-0.0712 0.0493,-0.14661 0.0992,-0.21864 0.0506,-0.0731 0.11355,-0.1337 0.18157,-0.17904 0.0682,-0.0454 0.12944,-0.0677 0.17102,-0.0782 0.0407,-0.0104 0.0556,-0.008 0.0363,-0.0112 -0.0547,-0.009 -0.11027,-0.0153 -0.16572,-0.0122 -0.0555,0.003 -0.11045,0.0115 -0.16556,0.0183 -1.82,0.22658 -3.68118,0.22821 -5.60138,0.24216 -1.967,0.0143 -3.97577,0.0421 -5.9958,0.34815 -0.26635,0.0379 -0.61,0.0965 -0.96953,0.19141 -0.35877,0.0947 -0.7828,0.23807 -1.18257,0.46632 -0.2066,0.11795 -0.42357,0.26806 -0.62613,0.46035 -0.20648,0.196 -0.40433,0.44326 -0.5526,0.74209 -0.15325,0.30886 -0.24238,0.64847 -0.25784,1.00627 -0.0155,0.35788 0.044,0.70075 0.14913,1.01827 0.008,0.0237 0.0165,0.0471 0.0255,0.0705 0.46155,1.2014 1.17405,2.20031 1.79041,3.00271 0.21318,0.27753 0.43505,0.55664 0.6342,0.80879 0.41993,0.53171 0.79396,1.01346 1.11297,1.50715 0.12904,0.21028 0.25325,0.39876 0.35434,0.57114 0.10904,0.18595 0.17193,0.31785 0.20188,0.406 0.0127,0.0372 0.0131,0.0522 0.0103,0.0331 -0.003,-0.0192 -0.008,-0.0752 0.006,-0.15877 0.0155,-0.0892 0.0505,-0.18745 0.10883,-0.27913 0.0576,-0.0905 0.11753,-0.14252 0.14781,-0.16467 0.0781,-0.0572 0.15803,-0.11274 0.24528,-0.15471 0.0872,-0.042 0.1805,-0.0698 0.27388,-0.0954 -0.0919,0.0252 -0.19934,0.038 -0.33397,0.0332 -0.14023,-0.005 -0.30528,-0.0291 -0.50521,-0.0763 -0.45304,-0.10696 -0.83248,-0.25948 -1.4259,-0.44893 -3.02645,-1.2096 -5.79378,-2.48018 -8.23335,-3.69022 -3.04306,-1.50773 -5.48733,-2.75218 -8.24338,-3.8453 -3.55488,-1.40994 -6.46884,-2.06592 -9.12337,-2.26704 a 1.6059935,1.6059935 90 0 0 -0.24266,3.2028 z"
         id="path-1-62"
         inkscape:path-effect="#path-effect2195;#path-effect2197"
         inkscape:original-d="m 572.39115,491.95615 c 8.09852,0.62877 14.86465,5.44499 22.18737,8.46111 0.65483,0.26971 5.51633,2.68787 6.45049,1.63507 1.36523,-1.53861 -5.07239,-6.63379 -4.00745,-8.36586 1.19154,-1.93798 11.46902,-0.83322 14.28679,-1.6827 1.8547,-0.55914 -1.21228,-2.57016 -0.71434,-2.65104 5.49915,-0.89331 11.17178,1.05611 16.63696,0.12699 0.67226,-0.11429 -1.2356,-0.58286 -1.87871,-0.8096 -0.36327,-0.12807 -4.56754,-1.5937 -4.10746,-2.39704 1.0858,-1.89586 5.62006,-1.93676 7.50771,-2.14306 0.33479,-0.0366 -0.6722,0.045 -1.00721,0.0794 -0.94887,0.0974 -2.50852,0.31648 -3.32883,0.42861 -4.51619,0.61735 -9.04174,1.25508 -13.59387,1.53983 -0.97454,0.061 -2.84955,0.14293 -3.97173,0.1905 -0.42122,0.0179 -1.68124,0.0947 -1.26438,0.0317 1.54761,-0.23386 3.5233,-0.42663 3.52169,-0.44449 -0.007,-0.0736 -1.25269,-0.1709 -1.95014,-0.12699 -4.43884,0.27944 -2.66418,0.48009 -6.84338,0.39687 -3.30046,-0.0657 2.0202,-2.72265 3.07167,-3.17491 0.35773,-0.15387 -0.73196,0.26665 -1.09294,0.41274 -0.44692,0.18085 -0.88579,0.38099 -1.32868,0.57148 -0.8834,0.36511 -1.76282,0.74 -2.65019,1.09534 -3.24224,1.2983 -6.7108,2.70159 -10.27935,2.50817 -2.44268,-0.13239 -0.47414,-1.94762 0.33574,-2.79391 0.40434,-0.42251 0.84372,-0.81086 1.24295,-1.23821 0.0576,-0.0617 0.20509,-0.21084 0.12144,-0.22225 -1.58593,-0.21622 -3.17315,0.42334 -4.7575,0.65086 -0.2894,0.0416 -1.69371,0.26685 -1.11437,-0.47624 0.97392,-1.24919 3.11234,-1.49362 3.93601,-2.95265 0.88841,-1.57372 -4.0177,0.50011 -4.25746,0.58736 -3.71193,1.3508 -7.87126,3.27055 -11.90089,3.44476 -2.58967,0.11197 -4.03275,0.49436 -6.13618,1.98431 -0.32091,0.22732 -1.00601,0.46763 -0.84292,0.82548 0.80487,1.76597 3.92087,4.25399 5.67186,5.03222 0.81968,0.3643 1.48641,-0.36309 2.1573,0.44448"
         style="fill:#ffcc00;fill-rule:nonzero;stroke:none;stroke-width:1px;stroke-linecap:butt;stroke-linejoin:miter;stroke-opacity:1"
         transform="translate(-301.33096,-353.72131)" />
    </g>
  </g>
</svg>
