<?xml version="1.0" encoding="UTF-8" standalone="no"?>
<!-- Created with Inkscape (http://www.inkscape.org/) -->

<svg
   width="57.551357mm"
   height="57.551361mm"
   viewBox="0 0 57.551355 57.551361"
   version="1.1"
   id="svg75015"
   xmlns:xlink="http://www.w3.org/1999/xlink"
   xmlns="http://www.w3.org/2000/svg"
   xmlns:svg="http://www.w3.org/2000/svg">
  <defs
     id="defs75012">
    <filter
       style="color-interpolation-filters:sRGB"
       id="filter37534"
       x="-0.13928667"
       y="-0.17551914"
       width="1.2785733"
       height="1.3510383">
      <feGaussianBlur
         stdDeviation="0.32395641"
         id="feGaussianBlur37532" />
    </filter>
    <filter
       style="color-interpolation-filters:sRGB"
       id="filter37560"
       x="-0.044385616"
       y="-0.055931594"
       width="1.0887712"
       height="1.1118633">
      <feGaussianBlur
         stdDeviation="0.10323317"
         id="feGaussianBlur37558" />
    </filter>
    <linearGradient
       id="linearGradient54861">
      <stop
         style="stop-color:#ff9419;stop-opacity:1;"
         offset="0"
         id="stop54859" />
      <stop
         style="stop-color:#da2800;stop-opacity:1;"
         offset="1"
         id="stop54857" />
    </linearGradient>
    <radialGradient
       xlink:href="#linearGradient54861"
       id="radialGradient1290"
       gradientUnits="userSpaceOnUse"
       gradientTransform="matrix(1,0,0,0.38638965,0,559.2271)"
       cx="-615.20447"
       cy="936.90228"
       fx="-615.20447"
       fy="936.90228"
       r="21.425779" />
    <radialGradient
       xlink:href="#linearGradient54861"
       id="radialGradient1292"
       gradientUnits="userSpaceOnUse"
       gradientTransform="matrix(1,0,0,0.38638965,0,559.2271)"
       cx="-615.20447"
       cy="936.90228"
       fx="-615.20447"
       fy="936.90228"
       r="21.425779" />
  </defs>
  <g
     id="layer1"
     transform="translate(160.00796,-456.61591)"
     style="display:inline">
    <g
       id="g1086"
       transform="translate(-157.80433,487.81133)">
      <g
         id="g1074"
         style="opacity:0.501708;fill:#ff5a06;fill-opacity:1;filter:url(#filter37534)"
         transform="matrix(6.0199175,0,0,6.0199175,3729.7621,-5539.9096)">
        <path
           style="color:#000000;fill:#ff5a06;fill-opacity:1;stroke-linecap:round;-inkscape-stroke:none"
           d="m -615.15625,917.1875 -2.79102,4.1875 0.0488,0.24219 0.24219,-0.0488 2.5,-3.75 2.5,3.75 0.24219,0.0488 0.0488,-0.24219 z"
           id="path1070" />
        <circle
           style="fill:#ff5a06;fill-opacity:1;stroke:none;stroke-width:0.35;stroke-linecap:round;stroke-dasharray:none;stop-color:#000000"
           id="circle1072"
           cx="-615.20447"
           cy="921.23645"
           r="0.33280912" />
      </g>
      <g
         id="g1080"
         style="mix-blend-mode:normal;fill:#030100;fill-opacity:1;filter:url(#filter37560)"
         transform="matrix(6.0199175,0,0,6.0199175,3729.7621,-5539.9096)">
        <path
           style="color:#000000;fill:#030100;fill-opacity:1;stroke-linecap:round;-inkscape-stroke:none"
           d="m -615.15625,917.1875 -2.79102,4.1875 0.0488,0.24219 0.24219,-0.0488 2.5,-3.75 2.5,3.75 0.24219,0.0488 0.0488,-0.24219 z"
           id="path1076" />
        <circle
           style="fill:#030100;fill-opacity:1;stroke:none;stroke-width:0.35;stroke-linecap:round;stroke-dasharray:none;stop-color:#000000"
           id="circle1078"
           cx="-615.20447"
           cy="921.23645"
           r="0.33280912" />
      </g>
      <g
         id="g1084"
         style="fill:url(#radialGradient1292);fill-opacity:1;stroke:none"
         transform="matrix(6.0199175,0,0,6.0199175,3729.7621,-5539.9096)">
        <path
           id="path1082"
           style="color:#000000;fill:url(#radialGradient1290);fill-opacity:1;stroke:none;stroke-linecap:round;-inkscape-stroke:none"
           d="m -615.15628,917.18751 -2.791,4.18748 0.0489,0.24216 0.24216,-0.0488 2.49999,-3.75002 2.49999,3.75002 0.24216,0.0488 0.0488,-0.24216 z m -0.0482,3.71612 c -0.18381,0 -0.33281,0.149 -0.33281,0.33281 0,0.18381 0.149,0.33281 0.33281,0.33281 0.18381,0 0.33281,-0.149 0.33281,-0.33281 0,-0.18381 -0.149,-0.33281 -0.33281,-0.33281 z" />
      </g>
    </g>
  </g>
</svg>
