[gd_resource type="Resource" load_steps=3 format=3]

[ext_resource type="Script" path="res://Assets/Badges/Badge.gd" id="1_u2gdx"]
[ext_resource type="Texture2D" path="res://Assets/Badges/Textures/Badge_Admin.png" id="2_ow5xa"]

[resource]
script = ExtResource( "1_u2gdx" )
display_name = "Server Administrator"
description = "runs the server you're currently playing on"
texture = ExtResource( "2_ow5xa" )
priority = null
